Visage 1:
Point 1: (714, 338)
Point 2: (721, 385)
Point 3: (733, 431)
Point 4: (746, 475)
Point 5: (765, 517)
Point 6: (793, 553)
Point 7: (825, 588)
Point 8: (862, 615)
Point 9: (907, 620)
Point 10: (948, 609)
Point 11: (976, 576)
Point 12: (999, 536)
Point 13: (1019, 496)
Point 14: (1030, 451)
Point 15: (1035, 404)
Point 16: (1037, 357)
Point 17: (1034, 310)
Point 18: (734, 325)
Point 19: (755, 301)
Point 20: (790, 291)
Point 21: (827, 293)
Point 22: (861, 304)
Point 23: (900, 300)
Point 24: (931, 283)
Point 25: (964, 274)
Point 26: (997, 276)
Point 27: (1021, 295)
Point 28: (885, 332)
Point 29: (889, 366)
Point 30: (893, 401)
Point 31: (897, 436)
Point 32: (855, 449)
Point 33: (874, 457)
Point 34: (895, 463)
Point 35: (914, 456)
Point 36: (930, 447)
Point 37: (777, 348)
Point 38: (794, 335)
Point 39: (819, 332)
Point 40: (840, 342)
Point 41: (820, 352)
Point 42: (796, 355)
Point 43: (924, 337)
Point 44: (944, 323)
Point 45: (968, 322)
Point 46: (986, 332)
Point 47: (971, 342)
Point 48: (947, 343)
Point 49: (828, 507)
Point 50: (853, 504)
Point 51: (877, 502)
Point 52: (893, 506)
Point 53: (911, 501)
Point 54: (933, 503)
Point 55: (954, 505)
Point 56: (934, 528)
Point 57: (914, 538)
Point 58: (896, 541)
Point 59: (878, 539)
Point 60: (854, 529)
Point 61: (839, 510)
Point 62: (877, 514)
Point 63: (894, 517)
Point 64: (912, 514)
Point 65: (945, 509)
Point 66: (912, 514)
Point 67: (895, 517)
Point 68: (877, 515)
Visage 2:
Point 1: (340, 326)
Point 2: (341, 348)
Point 3: (344, 371)
Point 4: (347, 392)
Point 5: (352, 414)
Point 6: (362, 433)
Point 7: (376, 449)
Point 8: (395, 459)
Point 9: (418, 463)
Point 10: (442, 461)
Point 11: (461, 451)
Point 12: (477, 437)
Point 13: (490, 421)
Point 14: (498, 401)
Point 15: (503, 380)
Point 16: (507, 358)
Point 17: (510, 337)
Point 18: (357, 291)
Point 19: (368, 279)
Point 20: (383, 277)
Point 21: (398, 282)
Point 22: (412, 290)
Point 23: (442, 292)
Point 24: (457, 286)
Point 25: (473, 284)
Point 26: (487, 287)
Point 27: (495, 299)
Point 28: (427, 308)
Point 29: (426, 321)
Point 30: (426, 334)
Point 31: (426, 347)
Point 32: (406, 365)
Point 33: (415, 367)
Point 34: (423, 368)
Point 35: (432, 368)
Point 36: (440, 367)
Point 37: (373, 316)
Point 38: (382, 313)
Point 39: (392, 313)
Point 40: (401, 317)
Point 41: (392, 319)
Point 42: (382, 319)
Point 43: (450, 321)
Point 44: (460, 319)
Point 45: (470, 320)
Point 46: (479, 325)
Point 47: (469, 326)
Point 48: (459, 324)
Point 49: (387, 401)
Point 50: (400, 392)
Point 51: (413, 388)
Point 52: (422, 390)
Point 53: (431, 388)
Point 54: (443, 394)
Point 55: (454, 404)
Point 56: (442, 412)
Point 57: (430, 416)
Point 58: (420, 416)
Point 59: (411, 415)
Point 60: (399, 411)
Point 61: (393, 401)
Point 62: (413, 399)
Point 63: (421, 400)
Point 64: (431, 400)
Point 65: (448, 404)
Point 66: (431, 403)
Point 67: (421, 403)
Point 68: (412, 403)
