Visage 1:
Point 1: (715, 331)
Point 2: (721, 378)
Point 3: (731, 425)
Point 4: (743, 470)
Point 5: (761, 515)
Point 6: (789, 554)
Point 7: (821, 591)
Point 8: (859, 619)
Point 9: (905, 626)
Point 10: (949, 614)
Point 11: (976, 582)
Point 12: (1000, 540)
Point 13: (1019, 498)
Point 14: (1030, 453)
Point 15: (1034, 408)
Point 16: (1034, 360)
Point 17: (1030, 312)
Point 18: (737, 328)
Point 19: (757, 304)
Point 20: (791, 293)
Point 21: (827, 295)
Point 22: (863, 308)
Point 23: (900, 303)
Point 24: (931, 285)
Point 25: (964, 277)
Point 26: (996, 279)
Point 27: (1019, 299)
Point 28: (885, 338)
Point 29: (889, 371)
Point 30: (893, 403)
Point 31: (897, 437)
Point 32: (854, 451)
Point 33: (874, 460)
Point 34: (896, 465)
Point 35: (915, 457)
Point 36: (931, 449)
Point 37: (780, 360)
Point 38: (798, 359)
Point 39: (819, 355)
Point 40: (841, 351)
Point 41: (821, 362)
Point 42: (801, 366)
Point 43: (922, 346)
Point 44: (944, 347)
Point 45: (965, 348)
Point 46: (984, 346)
Point 47: (966, 353)
Point 48: (945, 353)
Point 49: (830, 511)
Point 50: (856, 505)
Point 51: (878, 501)
Point 52: (895, 504)
Point 53: (913, 499)
Point 54: (934, 502)
Point 55: (953, 508)
Point 56: (936, 530)
Point 57: (917, 543)
Point 58: (898, 547)
Point 59: (880, 545)
Point 60: (856, 534)
Point 61: (842, 513)
Point 62: (879, 516)
Point 63: (896, 518)
Point 64: (914, 515)
Point 65: (943, 510)
Point 66: (914, 517)
Point 67: (897, 521)
Point 68: (880, 519)
Visage 2:
Point 1: (345, 321)
Point 2: (345, 343)
Point 3: (347, 367)
Point 4: (350, 389)
Point 5: (355, 411)
Point 6: (364, 431)
Point 7: (378, 448)
Point 8: (396, 459)
Point 9: (419, 465)
Point 10: (443, 463)
Point 11: (463, 453)
Point 12: (479, 439)
Point 13: (492, 421)
Point 14: (500, 401)
Point 15: (507, 378)
Point 16: (511, 356)
Point 17: (514, 333)
Point 18: (360, 292)
Point 19: (371, 281)
Point 20: (386, 279)
Point 21: (401, 284)
Point 22: (416, 291)
Point 23: (445, 293)
Point 24: (461, 288)
Point 25: (476, 285)
Point 26: (491, 289)
Point 27: (501, 301)
Point 28: (430, 308)
Point 29: (429, 322)
Point 30: (429, 335)
Point 31: (428, 349)
Point 32: (409, 366)
Point 33: (417, 367)
Point 34: (425, 369)
Point 35: (434, 369)
Point 36: (442, 368)
Point 37: (373, 313)
Point 38: (383, 307)
Point 39: (395, 308)
Point 40: (404, 317)
Point 41: (394, 318)
Point 42: (382, 318)
Point 43: (453, 320)
Point 44: (464, 313)
Point 45: (476, 314)
Point 46: (484, 321)
Point 47: (476, 325)
Point 48: (464, 324)
Point 49: (390, 401)
Point 50: (402, 392)
Point 51: (415, 388)
Point 52: (424, 390)
Point 53: (434, 388)
Point 54: (446, 395)
Point 55: (456, 405)
Point 56: (445, 413)
Point 57: (433, 417)
Point 58: (422, 417)
Point 59: (412, 416)
Point 60: (401, 411)
Point 61: (395, 402)
Point 62: (414, 400)
Point 63: (423, 401)
Point 64: (434, 400)
Point 65: (451, 405)
Point 66: (433, 402)
Point 67: (423, 403)
Point 68: (414, 402)
