Visage 1:
Point 1: (715, 340)
Point 2: (721, 389)
Point 3: (732, 436)
Point 4: (744, 480)
Point 5: (765, 523)
Point 6: (793, 559)
Point 7: (824, 594)
Point 8: (859, 623)
Point 9: (902, 630)
Point 10: (942, 620)
Point 11: (968, 589)
Point 12: (991, 551)
Point 13: (1012, 511)
Point 14: (1026, 466)
Point 15: (1033, 419)
Point 16: (1036, 371)
Point 17: (1034, 322)
Point 18: (736, 331)
Point 19: (757, 307)
Point 20: (791, 297)
Point 21: (827, 300)
Point 22: (861, 311)
Point 23: (901, 308)
Point 24: (932, 292)
Point 25: (964, 283)
Point 26: (997, 284)
Point 27: (1023, 302)
Point 28: (884, 340)
Point 29: (888, 376)
Point 30: (892, 412)
Point 31: (896, 449)
Point 32: (853, 459)
Point 33: (872, 467)
Point 34: (894, 473)
Point 35: (913, 465)
Point 36: (929, 456)
Point 37: (775, 353)
Point 38: (793, 341)
Point 39: (818, 338)
Point 40: (840, 349)
Point 41: (819, 359)
Point 42: (795, 362)
Point 43: (923, 345)
Point 44: (944, 331)
Point 45: (969, 330)
Point 46: (987, 340)
Point 47: (971, 351)
Point 48: (947, 351)
Point 49: (828, 517)
Point 50: (852, 513)
Point 51: (876, 510)
Point 52: (893, 514)
Point 53: (911, 510)
Point 54: (933, 513)
Point 55: (952, 516)
Point 56: (934, 539)
Point 57: (913, 550)
Point 58: (894, 553)
Point 59: (876, 551)
Point 60: (852, 540)
Point 61: (839, 519)
Point 62: (875, 523)
Point 63: (893, 527)
Point 64: (911, 524)
Point 65: (944, 519)
Point 66: (911, 526)
Point 67: (894, 528)
Point 68: (876, 525)
Visage 2:
Point 1: (345, 324)
Point 2: (346, 347)
Point 3: (349, 370)
Point 4: (353, 392)
Point 5: (358, 414)
Point 6: (368, 434)
Point 7: (381, 450)
Point 8: (398, 460)
Point 9: (421, 465)
Point 10: (444, 463)
Point 11: (462, 454)
Point 12: (479, 440)
Point 13: (491, 424)
Point 14: (500, 404)
Point 15: (507, 383)
Point 16: (511, 361)
Point 17: (515, 340)
Point 18: (362, 296)
Point 19: (372, 284)
Point 20: (387, 281)
Point 21: (403, 285)
Point 22: (418, 293)
Point 23: (446, 294)
Point 24: (461, 290)
Point 25: (477, 287)
Point 26: (491, 291)
Point 27: (500, 304)
Point 28: (431, 310)
Point 29: (430, 323)
Point 30: (429, 335)
Point 31: (428, 348)
Point 32: (409, 367)
Point 33: (418, 369)
Point 34: (426, 371)
Point 35: (435, 370)
Point 36: (444, 369)
Point 37: (377, 321)
Point 38: (387, 319)
Point 39: (397, 318)
Point 40: (406, 321)
Point 41: (396, 323)
Point 42: (386, 323)
Point 43: (453, 324)
Point 44: (463, 324)
Point 45: (473, 326)
Point 46: (482, 330)
Point 47: (472, 331)
Point 48: (462, 329)
Point 49: (390, 402)
Point 50: (402, 393)
Point 51: (416, 388)
Point 52: (425, 391)
Point 53: (435, 389)
Point 54: (447, 395)
Point 55: (458, 405)
Point 56: (446, 414)
Point 57: (434, 419)
Point 58: (423, 419)
Point 59: (413, 418)
Point 60: (401, 412)
Point 61: (396, 403)
Point 62: (415, 401)
Point 63: (424, 402)
Point 64: (434, 401)
Point 65: (452, 405)
Point 66: (434, 404)
Point 67: (424, 405)
Point 68: (415, 404)
