Visage 1:
Point 1: (715, 337)
Point 2: (717, 383)
Point 3: (726, 428)
Point 4: (737, 472)
Point 5: (754, 515)
Point 6: (779, 554)
Point 7: (807, 590)
Point 8: (841, 618)
Point 9: (880, 624)
Point 10: (923, 614)
Point 11: (954, 587)
Point 12: (978, 550)
Point 13: (999, 513)
Point 14: (1015, 471)
Point 15: (1024, 425)
Point 16: (1030, 378)
Point 17: (1031, 328)
Point 18: (726, 322)
Point 19: (746, 300)
Point 20: (779, 293)
Point 21: (812, 299)
Point 22: (844, 313)
Point 23: (879, 310)
Point 24: (911, 293)
Point 25: (946, 285)
Point 26: (983, 287)
Point 27: (1010, 307)
Point 28: (862, 341)
Point 29: (863, 375)
Point 30: (863, 410)
Point 31: (863, 446)
Point 32: (826, 456)
Point 33: (843, 465)
Point 34: (864, 471)
Point 35: (884, 465)
Point 36: (903, 457)
Point 37: (759, 348)
Point 38: (774, 335)
Point 39: (798, 334)
Point 40: (823, 348)
Point 41: (798, 356)
Point 42: (774, 358)
Point 43: (904, 345)
Point 44: (924, 327)
Point 45: (951, 328)
Point 46: (973, 339)
Point 47: (952, 350)
Point 48: (926, 350)
Point 49: (804, 511)
Point 50: (826, 507)
Point 51: (847, 505)
Point 52: (864, 509)
Point 53: (879, 505)
Point 54: (904, 509)
Point 55: (930, 515)
Point 56: (905, 537)
Point 57: (882, 547)
Point 58: (865, 549)
Point 59: (847, 545)
Point 60: (827, 534)
Point 61: (814, 513)
Point 62: (847, 519)
Point 63: (864, 522)
Point 64: (880, 521)
Point 65: (920, 517)
Point 66: (881, 523)
Point 67: (865, 524)
Point 68: (847, 521)
Visage 2:
Point 1: (347, 322)
Point 2: (347, 343)
Point 3: (349, 366)
Point 4: (352, 388)
Point 5: (357, 409)
Point 6: (366, 429)
Point 7: (379, 445)
Point 8: (396, 457)
Point 9: (418, 462)
Point 10: (441, 460)
Point 11: (461, 451)
Point 12: (478, 438)
Point 13: (492, 422)
Point 14: (501, 402)
Point 15: (508, 382)
Point 16: (514, 360)
Point 17: (517, 338)
Point 18: (362, 293)
Point 19: (374, 282)
Point 20: (389, 280)
Point 21: (404, 285)
Point 22: (418, 292)
Point 23: (446, 293)
Point 24: (462, 288)
Point 25: (478, 287)
Point 26: (493, 292)
Point 27: (501, 304)
Point 28: (431, 306)
Point 29: (430, 319)
Point 30: (429, 332)
Point 31: (428, 346)
Point 32: (410, 363)
Point 33: (418, 365)
Point 34: (426, 368)
Point 35: (435, 367)
Point 36: (443, 366)
Point 37: (376, 311)
Point 38: (386, 305)
Point 39: (398, 306)
Point 40: (407, 314)
Point 41: (396, 315)
Point 42: (385, 314)
Point 43: (455, 318)
Point 44: (465, 311)
Point 45: (477, 312)
Point 46: (486, 320)
Point 47: (476, 321)
Point 48: (465, 319)
Point 49: (391, 399)
Point 50: (404, 390)
Point 51: (416, 385)
Point 52: (425, 388)
Point 53: (434, 386)
Point 54: (447, 392)
Point 55: (458, 402)
Point 56: (446, 411)
Point 57: (433, 415)
Point 58: (423, 415)
Point 59: (414, 413)
Point 60: (402, 409)
Point 61: (397, 399)
Point 62: (416, 398)
Point 63: (424, 398)
Point 64: (434, 398)
Point 65: (452, 402)
Point 66: (434, 400)
Point 67: (424, 401)
Point 68: (415, 399)
