Visage 1:
Point 1: (714, 336)
Point 2: (721, 385)
Point 3: (732, 432)
Point 4: (745, 477)
Point 5: (766, 519)
Point 6: (795, 555)
Point 7: (826, 589)
Point 8: (862, 616)
Point 9: (906, 621)
Point 10: (946, 611)
Point 11: (973, 579)
Point 12: (996, 541)
Point 13: (1017, 502)
Point 14: (1029, 456)
Point 15: (1034, 409)
Point 16: (1036, 360)
Point 17: (1033, 310)
Point 18: (734, 330)
Point 19: (755, 305)
Point 20: (790, 293)
Point 21: (828, 296)
Point 22: (862, 309)
Point 23: (899, 305)
Point 24: (930, 287)
Point 25: (964, 278)
Point 26: (999, 280)
Point 27: (1024, 301)
Point 28: (885, 336)
Point 29: (889, 371)
Point 30: (892, 407)
Point 31: (896, 443)
Point 32: (854, 454)
Point 33: (873, 463)
Point 34: (894, 469)
Point 35: (913, 461)
Point 36: (930, 452)
Point 37: (775, 350)
Point 38: (794, 338)
Point 39: (818, 335)
Point 40: (841, 346)
Point 41: (820, 356)
Point 42: (795, 359)
Point 43: (923, 341)
Point 44: (945, 327)
Point 45: (970, 327)
Point 46: (988, 336)
Point 47: (972, 347)
Point 48: (947, 347)
Point 49: (829, 512)
Point 50: (855, 511)
Point 51: (878, 508)
Point 52: (894, 512)
Point 53: (910, 507)
Point 54: (932, 509)
Point 55: (952, 511)
Point 56: (933, 532)
Point 57: (913, 543)
Point 58: (896, 546)
Point 59: (879, 544)
Point 60: (856, 534)
Point 61: (841, 515)
Point 62: (878, 519)
Point 63: (894, 522)
Point 64: (911, 519)
Point 65: (944, 514)
Point 66: (912, 520)
Point 67: (895, 524)
Point 68: (879, 521)
Visage 2:
Point 1: (344, 325)
Point 2: (345, 347)
Point 3: (348, 370)
Point 4: (351, 391)
Point 5: (356, 413)
Point 6: (365, 434)
Point 7: (379, 450)
Point 8: (397, 461)
Point 9: (421, 465)
Point 10: (445, 463)
Point 11: (464, 454)
Point 12: (480, 440)
Point 13: (493, 423)
Point 14: (501, 403)
Point 15: (507, 382)
Point 16: (511, 360)
Point 17: (515, 338)
Point 18: (363, 294)
Point 19: (373, 284)
Point 20: (388, 281)
Point 21: (403, 285)
Point 22: (418, 292)
Point 23: (446, 294)
Point 24: (462, 289)
Point 25: (477, 287)
Point 26: (491, 291)
Point 27: (500, 303)
Point 28: (431, 309)
Point 29: (430, 322)
Point 30: (429, 335)
Point 31: (428, 348)
Point 32: (409, 367)
Point 33: (418, 369)
Point 34: (426, 371)
Point 35: (435, 370)
Point 36: (444, 370)
Point 37: (377, 320)
Point 38: (387, 319)
Point 39: (397, 318)
Point 40: (406, 319)
Point 41: (396, 323)
Point 42: (386, 323)
Point 43: (453, 323)
Point 44: (464, 324)
Point 45: (474, 326)
Point 46: (482, 329)
Point 47: (472, 330)
Point 48: (462, 328)
Point 49: (390, 402)
Point 50: (402, 394)
Point 51: (415, 389)
Point 52: (424, 391)
Point 53: (434, 389)
Point 54: (446, 395)
Point 55: (457, 405)
Point 56: (445, 414)
Point 57: (433, 419)
Point 58: (423, 419)
Point 59: (413, 418)
Point 60: (401, 413)
Point 61: (396, 403)
Point 62: (415, 401)
Point 63: (424, 402)
Point 64: (434, 402)
Point 65: (451, 406)
Point 66: (434, 404)
Point 67: (424, 405)
Point 68: (415, 403)
