Visage 1:
Point 1: (716, 332)
Point 2: (721, 379)
Point 3: (730, 424)
Point 4: (740, 469)
Point 5: (758, 513)
Point 6: (787, 552)
Point 7: (819, 589)
Point 8: (858, 618)
Point 9: (904, 624)
Point 10: (948, 612)
Point 11: (976, 578)
Point 12: (999, 537)
Point 13: (1018, 495)
Point 14: (1028, 450)
Point 15: (1032, 406)
Point 16: (1030, 360)
Point 17: (1026, 314)
Point 18: (738, 326)
Point 19: (759, 302)
Point 20: (794, 292)
Point 21: (830, 296)
Point 22: (864, 309)
Point 23: (900, 303)
Point 24: (930, 286)
Point 25: (963, 278)
Point 26: (995, 280)
Point 27: (1019, 299)
Point 28: (885, 340)
Point 29: (889, 372)
Point 30: (893, 404)
Point 31: (897, 437)
Point 32: (853, 453)
Point 33: (873, 461)
Point 34: (895, 468)
Point 35: (914, 459)
Point 36: (930, 450)
Point 37: (780, 360)
Point 38: (799, 357)
Point 39: (821, 353)
Point 40: (843, 353)
Point 41: (823, 363)
Point 42: (801, 367)
Point 43: (919, 348)
Point 44: (942, 347)
Point 45: (964, 347)
Point 46: (982, 347)
Point 47: (965, 356)
Point 48: (943, 355)
Point 49: (828, 511)
Point 50: (854, 506)
Point 51: (878, 502)
Point 52: (894, 506)
Point 53: (911, 501)
Point 54: (933, 503)
Point 55: (953, 509)
Point 56: (934, 533)
Point 57: (915, 546)
Point 58: (896, 549)
Point 59: (878, 547)
Point 60: (854, 536)
Point 61: (840, 514)
Point 62: (878, 517)
Point 63: (895, 519)
Point 64: (911, 516)
Point 65: (943, 512)
Point 66: (912, 520)
Point 67: (896, 523)
Point 68: (878, 521)
Visage 2:
Point 1: (345, 322)
Point 2: (345, 344)
Point 3: (348, 367)
Point 4: (351, 389)
Point 5: (356, 411)
Point 6: (364, 431)
Point 7: (377, 447)
Point 8: (395, 458)
Point 9: (419, 464)
Point 10: (443, 462)
Point 11: (463, 453)
Point 12: (479, 439)
Point 13: (491, 422)
Point 14: (500, 402)
Point 15: (507, 381)
Point 16: (511, 358)
Point 17: (515, 336)
Point 18: (360, 293)
Point 19: (371, 281)
Point 20: (386, 278)
Point 21: (402, 283)
Point 22: (417, 291)
Point 23: (447, 293)
Point 24: (462, 288)
Point 25: (478, 285)
Point 26: (492, 290)
Point 27: (501, 302)
Point 28: (431, 308)
Point 29: (430, 322)
Point 30: (429, 335)
Point 31: (428, 349)
Point 32: (409, 365)
Point 33: (417, 367)
Point 34: (426, 369)
Point 35: (435, 368)
Point 36: (443, 368)
Point 37: (374, 312)
Point 38: (384, 306)
Point 39: (396, 307)
Point 40: (405, 316)
Point 41: (395, 318)
Point 42: (383, 318)
Point 43: (454, 321)
Point 44: (465, 313)
Point 45: (477, 314)
Point 46: (485, 322)
Point 47: (476, 326)
Point 48: (465, 325)
Point 49: (389, 400)
Point 50: (402, 391)
Point 51: (415, 387)
Point 52: (424, 390)
Point 53: (434, 388)
Point 54: (446, 395)
Point 55: (457, 404)
Point 56: (445, 413)
Point 57: (433, 417)
Point 58: (422, 417)
Point 59: (413, 416)
Point 60: (401, 411)
Point 61: (395, 401)
Point 62: (414, 400)
Point 63: (423, 401)
Point 64: (434, 401)
Point 65: (451, 404)
Point 66: (434, 403)
Point 67: (423, 404)
Point 68: (414, 402)
