Visage 1:
Point 1: (715, 336)
Point 2: (721, 384)
Point 3: (733, 432)
Point 4: (747, 476)
Point 5: (768, 518)
Point 6: (797, 555)
Point 7: (828, 589)
Point 8: (864, 616)
Point 9: (907, 621)
Point 10: (948, 610)
Point 11: (974, 577)
Point 12: (996, 538)
Point 13: (1017, 499)
Point 14: (1029, 454)
Point 15: (1035, 408)
Point 16: (1037, 359)
Point 17: (1034, 311)
Point 18: (736, 326)
Point 19: (757, 303)
Point 20: (791, 293)
Point 21: (827, 297)
Point 22: (860, 309)
Point 23: (899, 304)
Point 24: (929, 287)
Point 25: (963, 278)
Point 26: (996, 279)
Point 27: (1022, 297)
Point 28: (885, 336)
Point 29: (889, 371)
Point 30: (893, 405)
Point 31: (896, 440)
Point 32: (855, 454)
Point 33: (874, 462)
Point 34: (895, 468)
Point 35: (914, 461)
Point 36: (929, 452)
Point 37: (775, 350)
Point 38: (793, 338)
Point 39: (818, 335)
Point 40: (840, 346)
Point 41: (819, 356)
Point 42: (795, 359)
Point 43: (923, 341)
Point 44: (944, 326)
Point 45: (969, 326)
Point 46: (988, 335)
Point 47: (972, 346)
Point 48: (947, 347)
Point 49: (829, 512)
Point 50: (853, 509)
Point 51: (876, 506)
Point 52: (893, 510)
Point 53: (909, 505)
Point 54: (931, 508)
Point 55: (951, 511)
Point 56: (932, 533)
Point 57: (912, 544)
Point 58: (895, 547)
Point 59: (877, 545)
Point 60: (854, 534)
Point 61: (840, 515)
Point 62: (876, 519)
Point 63: (893, 522)
Point 64: (910, 518)
Point 65: (942, 513)
Point 66: (911, 519)
Point 67: (894, 523)
Point 68: (878, 520)
Visage 2:
Point 1: (345, 324)
Point 2: (346, 346)
Point 3: (348, 369)
Point 4: (352, 390)
Point 5: (357, 412)
Point 6: (366, 433)
Point 7: (379, 450)
Point 8: (396, 462)
Point 9: (419, 467)
Point 10: (444, 465)
Point 11: (463, 455)
Point 12: (479, 441)
Point 13: (492, 424)
Point 14: (500, 404)
Point 15: (507, 383)
Point 16: (512, 361)
Point 17: (515, 339)
Point 18: (363, 295)
Point 19: (373, 284)
Point 20: (388, 282)
Point 21: (403, 287)
Point 22: (418, 294)
Point 23: (446, 295)
Point 24: (462, 290)
Point 25: (477, 288)
Point 26: (492, 291)
Point 27: (500, 303)
Point 28: (431, 310)
Point 29: (430, 323)
Point 30: (429, 336)
Point 31: (429, 349)
Point 32: (410, 368)
Point 33: (418, 369)
Point 34: (426, 371)
Point 35: (435, 370)
Point 36: (444, 370)
Point 37: (377, 321)
Point 38: (386, 320)
Point 39: (397, 319)
Point 40: (406, 320)
Point 41: (396, 323)
Point 42: (386, 324)
Point 43: (454, 324)
Point 44: (464, 325)
Point 45: (474, 327)
Point 46: (482, 330)
Point 47: (472, 331)
Point 48: (462, 329)
Point 49: (390, 403)
Point 50: (403, 394)
Point 51: (416, 389)
Point 52: (426, 392)
Point 53: (435, 390)
Point 54: (447, 396)
Point 55: (457, 406)
Point 56: (446, 415)
Point 57: (435, 419)
Point 58: (424, 420)
Point 59: (414, 418)
Point 60: (402, 414)
Point 61: (396, 404)
Point 62: (416, 402)
Point 63: (425, 403)
Point 64: (435, 403)
Point 65: (452, 406)
Point 66: (435, 405)
Point 67: (425, 406)
Point 68: (416, 405)
