Visage 1:
Point 1: (350, 322)
Point 2: (351, 345)
Point 3: (353, 369)
Point 4: (358, 391)
Point 5: (364, 413)
Point 6: (376, 431)
Point 7: (392, 446)
Point 8: (410, 456)
Point 9: (432, 460)
Point 10: (453, 459)
Point 11: (472, 450)
Point 12: (487, 436)
Point 13: (498, 419)
Point 14: (506, 400)
Point 15: (512, 379)
Point 16: (517, 358)
Point 17: (520, 337)
Point 18: (373, 291)
Point 19: (385, 281)
Point 20: (401, 279)
Point 21: (416, 283)
Point 22: (431, 291)
Point 23: (459, 294)
Point 24: (474, 289)
Point 25: (489, 288)
Point 26: (503, 293)
Point 27: (511, 306)
Point 28: (446, 307)
Point 29: (446, 319)
Point 30: (446, 332)
Point 31: (446, 345)
Point 32: (425, 363)
Point 33: (433, 365)
Point 34: (442, 367)
Point 35: (451, 366)
Point 36: (459, 366)
Point 37: (387, 309)
Point 38: (397, 302)
Point 39: (410, 303)
Point 40: (420, 314)
Point 41: (408, 314)
Point 42: (396, 313)
Point 43: (465, 319)
Point 44: (477, 311)
Point 45: (489, 312)
Point 46: (497, 321)
Point 47: (488, 323)
Point 48: (476, 321)
Point 49: (403, 399)
Point 50: (417, 389)
Point 51: (431, 384)
Point 52: (441, 387)
Point 53: (450, 385)
Point 54: (460, 392)
Point 55: (469, 403)
Point 56: (459, 410)
Point 57: (448, 415)
Point 58: (438, 415)
Point 59: (428, 413)
Point 60: (415, 408)
Point 61: (409, 399)
Point 62: (430, 397)
Point 63: (440, 398)
Point 64: (450, 398)
Point 65: (464, 403)
Point 66: (449, 401)
Point 67: (439, 401)
Point 68: (430, 400)
Visage 2:
Point 1: (714, 340)
Point 2: (717, 385)
Point 3: (726, 428)
Point 4: (738, 472)
Point 5: (755, 513)
Point 6: (780, 551)
Point 7: (807, 587)
Point 8: (840, 614)
Point 9: (880, 620)
Point 10: (923, 611)
Point 11: (954, 584)
Point 12: (979, 549)
Point 13: (1000, 512)
Point 14: (1016, 468)
Point 15: (1024, 423)
Point 16: (1029, 376)
Point 17: (1028, 328)
Point 18: (726, 321)
Point 19: (746, 301)
Point 20: (778, 295)
Point 21: (811, 300)
Point 22: (843, 313)
Point 23: (881, 311)
Point 24: (912, 294)
Point 25: (947, 286)
Point 26: (983, 287)
Point 27: (1010, 307)
Point 28: (862, 340)
Point 29: (863, 374)
Point 30: (863, 408)
Point 31: (863, 443)
Point 32: (828, 454)
Point 33: (844, 464)
Point 34: (865, 470)
Point 35: (884, 463)
Point 36: (901, 455)
Point 37: (758, 349)
Point 38: (772, 336)
Point 39: (797, 335)
Point 40: (821, 348)
Point 41: (797, 356)
Point 42: (773, 359)
Point 43: (904, 346)
Point 44: (924, 329)
Point 45: (951, 329)
Point 46: (973, 341)
Point 47: (953, 352)
Point 48: (927, 351)
Point 49: (803, 511)
Point 50: (825, 507)
Point 51: (847, 503)
Point 52: (865, 507)
Point 53: (880, 503)
Point 54: (904, 507)
Point 55: (928, 515)
Point 56: (906, 537)
Point 57: (883, 547)
Point 58: (866, 549)
Point 59: (847, 546)
Point 60: (826, 534)
Point 61: (815, 514)
Point 62: (847, 518)
Point 63: (865, 521)
Point 64: (880, 519)
Point 65: (918, 517)
Point 66: (882, 522)
Point 67: (866, 524)
Point 68: (848, 520)
