Visage 1:
Point 1: (716, 334)
Point 2: (722, 383)
Point 3: (733, 429)
Point 4: (746, 474)
Point 5: (766, 516)
Point 6: (795, 553)
Point 7: (826, 588)
Point 8: (862, 616)
Point 9: (906, 621)
Point 10: (948, 610)
Point 11: (975, 576)
Point 12: (998, 538)
Point 13: (1019, 498)
Point 14: (1030, 453)
Point 15: (1035, 406)
Point 16: (1036, 358)
Point 17: (1032, 310)
Point 18: (737, 324)
Point 19: (757, 300)
Point 20: (791, 289)
Point 21: (827, 292)
Point 22: (861, 304)
Point 23: (902, 299)
Point 24: (931, 282)
Point 25: (964, 273)
Point 26: (997, 274)
Point 27: (1020, 294)
Point 28: (885, 332)
Point 29: (889, 367)
Point 30: (893, 402)
Point 31: (896, 437)
Point 32: (856, 449)
Point 33: (874, 458)
Point 34: (895, 465)
Point 35: (914, 457)
Point 36: (930, 447)
Point 37: (777, 347)
Point 38: (795, 334)
Point 39: (819, 332)
Point 40: (841, 342)
Point 41: (821, 351)
Point 42: (797, 355)
Point 43: (924, 337)
Point 44: (944, 323)
Point 45: (968, 322)
Point 46: (985, 331)
Point 47: (970, 342)
Point 48: (947, 343)
Point 49: (830, 508)
Point 50: (854, 506)
Point 51: (877, 503)
Point 52: (894, 507)
Point 53: (911, 503)
Point 54: (933, 505)
Point 55: (953, 507)
Point 56: (934, 530)
Point 57: (914, 541)
Point 58: (895, 544)
Point 59: (878, 542)
Point 60: (855, 531)
Point 61: (840, 511)
Point 62: (877, 515)
Point 63: (895, 518)
Point 64: (912, 515)
Point 65: (943, 510)
Point 66: (912, 517)
Point 67: (895, 520)
Point 68: (877, 517)
Visage 2:
Point 1: (340, 327)
Point 2: (341, 350)
Point 3: (344, 374)
Point 4: (348, 395)
Point 5: (353, 417)
Point 6: (363, 437)
Point 7: (378, 452)
Point 8: (396, 463)
Point 9: (419, 468)
Point 10: (443, 465)
Point 11: (462, 455)
Point 12: (477, 440)
Point 13: (489, 423)
Point 14: (498, 404)
Point 15: (504, 382)
Point 16: (508, 360)
Point 17: (511, 338)
Point 18: (357, 292)
Point 19: (367, 281)
Point 20: (383, 279)
Point 21: (398, 283)
Point 22: (413, 291)
Point 23: (443, 293)
Point 24: (458, 287)
Point 25: (473, 285)
Point 26: (488, 289)
Point 27: (496, 301)
Point 28: (427, 310)
Point 29: (426, 323)
Point 30: (426, 336)
Point 31: (425, 350)
Point 32: (406, 367)
Point 33: (414, 369)
Point 34: (423, 370)
Point 35: (432, 370)
Point 36: (441, 370)
Point 37: (372, 319)
Point 38: (382, 317)
Point 39: (392, 317)
Point 40: (401, 319)
Point 41: (391, 321)
Point 42: (381, 321)
Point 43: (450, 323)
Point 44: (460, 322)
Point 45: (470, 324)
Point 46: (478, 328)
Point 47: (469, 328)
Point 48: (459, 326)
Point 49: (387, 403)
Point 50: (400, 394)
Point 51: (412, 389)
Point 52: (421, 392)
Point 53: (431, 390)
Point 54: (443, 396)
Point 55: (454, 405)
Point 56: (442, 415)
Point 57: (430, 419)
Point 58: (420, 420)
Point 59: (410, 418)
Point 60: (399, 414)
Point 61: (392, 403)
Point 62: (412, 401)
Point 63: (421, 401)
Point 64: (431, 401)
Point 65: (448, 405)
Point 66: (431, 405)
Point 67: (421, 406)
Point 68: (412, 405)
