Visage 1:
Point 1: (716, 335)
Point 2: (721, 384)
Point 3: (730, 431)
Point 4: (742, 476)
Point 5: (760, 520)
Point 6: (788, 560)
Point 7: (820, 597)
Point 8: (857, 626)
Point 9: (902, 633)
Point 10: (945, 622)
Point 11: (971, 590)
Point 12: (995, 549)
Point 13: (1016, 508)
Point 14: (1029, 464)
Point 15: (1035, 419)
Point 16: (1036, 371)
Point 17: (1033, 322)
Point 18: (737, 334)
Point 19: (758, 310)
Point 20: (792, 301)
Point 21: (830, 304)
Point 22: (864, 318)
Point 23: (902, 313)
Point 24: (933, 297)
Point 25: (966, 288)
Point 26: (997, 289)
Point 27: (1021, 307)
Point 28: (887, 348)
Point 29: (891, 382)
Point 30: (894, 416)
Point 31: (898, 451)
Point 32: (853, 462)
Point 33: (873, 471)
Point 34: (895, 477)
Point 35: (915, 469)
Point 36: (930, 459)
Point 37: (779, 366)
Point 38: (799, 364)
Point 39: (821, 360)
Point 40: (842, 360)
Point 41: (822, 370)
Point 42: (800, 373)
Point 43: (922, 355)
Point 44: (944, 353)
Point 45: (966, 353)
Point 46: (984, 354)
Point 47: (967, 363)
Point 48: (945, 362)
Point 49: (827, 519)
Point 50: (852, 515)
Point 51: (876, 512)
Point 52: (893, 516)
Point 53: (910, 510)
Point 54: (931, 513)
Point 55: (950, 518)
Point 56: (933, 542)
Point 57: (914, 555)
Point 58: (895, 559)
Point 59: (876, 556)
Point 60: (852, 544)
Point 61: (839, 522)
Point 62: (876, 525)
Point 63: (893, 528)
Point 64: (911, 524)
Point 65: (939, 521)
Point 66: (912, 529)
Point 67: (895, 532)
Point 68: (877, 529)
Visage 2:
Point 1: (343, 323)
Point 2: (341, 345)
Point 3: (342, 368)
Point 4: (346, 389)
Point 5: (351, 411)
Point 6: (360, 431)
Point 7: (373, 447)
Point 8: (390, 458)
Point 9: (413, 463)
Point 10: (437, 461)
Point 11: (458, 452)
Point 12: (476, 439)
Point 13: (490, 422)
Point 14: (499, 400)
Point 15: (505, 378)
Point 16: (510, 355)
Point 17: (512, 332)
Point 18: (355, 292)
Point 19: (366, 282)
Point 20: (381, 279)
Point 21: (395, 283)
Point 22: (410, 291)
Point 23: (437, 292)
Point 24: (453, 286)
Point 25: (469, 283)
Point 26: (485, 288)
Point 27: (495, 299)
Point 28: (421, 307)
Point 29: (420, 320)
Point 30: (419, 332)
Point 31: (417, 346)
Point 32: (400, 364)
Point 33: (408, 366)
Point 34: (416, 367)
Point 35: (425, 367)
Point 36: (434, 367)
Point 37: (367, 312)
Point 38: (375, 306)
Point 39: (387, 307)
Point 40: (397, 315)
Point 41: (386, 316)
Point 42: (375, 316)
Point 43: (445, 317)
Point 44: (455, 310)
Point 45: (468, 311)
Point 46: (478, 318)
Point 47: (467, 321)
Point 48: (455, 320)
Point 49: (381, 400)
Point 50: (393, 391)
Point 51: (406, 385)
Point 52: (415, 388)
Point 53: (424, 386)
Point 54: (437, 393)
Point 55: (450, 403)
Point 56: (437, 412)
Point 57: (424, 415)
Point 58: (414, 415)
Point 59: (404, 414)
Point 60: (392, 409)
Point 61: (387, 400)
Point 62: (405, 398)
Point 63: (414, 399)
Point 64: (424, 399)
Point 65: (445, 402)
Point 66: (424, 401)
Point 67: (414, 401)
Point 68: (405, 400)
