Visage 1:
Point 1: (710, 338)
Point 2: (715, 384)
Point 3: (725, 429)
Point 4: (738, 472)
Point 5: (756, 514)
Point 6: (782, 552)
Point 7: (810, 589)
Point 8: (843, 619)
Point 9: (885, 627)
Point 10: (928, 617)
Point 11: (957, 585)
Point 12: (981, 548)
Point 13: (1004, 511)
Point 14: (1019, 468)
Point 15: (1028, 423)
Point 16: (1034, 376)
Point 17: (1035, 327)
Point 18: (726, 327)
Point 19: (748, 305)
Point 20: (781, 299)
Point 21: (815, 304)
Point 22: (848, 317)
Point 23: (885, 314)
Point 24: (917, 297)
Point 25: (952, 289)
Point 26: (988, 291)
Point 27: (1015, 311)
Point 28: (868, 347)
Point 29: (870, 381)
Point 30: (870, 415)
Point 31: (871, 450)
Point 32: (833, 459)
Point 33: (851, 469)
Point 34: (872, 475)
Point 35: (892, 468)
Point 36: (910, 459)
Point 37: (766, 355)
Point 38: (783, 345)
Point 39: (807, 343)
Point 40: (828, 353)
Point 41: (807, 362)
Point 42: (784, 364)
Point 43: (911, 351)
Point 44: (933, 339)
Point 45: (958, 339)
Point 46: (978, 348)
Point 47: (959, 358)
Point 48: (935, 358)
Point 49: (810, 515)
Point 50: (832, 511)
Point 51: (854, 508)
Point 52: (872, 513)
Point 53: (888, 508)
Point 54: (912, 512)
Point 55: (933, 517)
Point 56: (913, 541)
Point 57: (893, 554)
Point 58: (874, 557)
Point 59: (855, 553)
Point 60: (834, 541)
Point 61: (822, 518)
Point 62: (854, 524)
Point 63: (872, 527)
Point 64: (889, 524)
Point 65: (923, 520)
Point 66: (891, 527)
Point 67: (874, 530)
Point 68: (855, 526)
Visage 2:
Point 1: (352, 321)
Point 2: (353, 344)
Point 3: (355, 368)
Point 4: (358, 390)
Point 5: (363, 412)
Point 6: (373, 431)
Point 7: (388, 446)
Point 8: (406, 456)
Point 9: (429, 462)
Point 10: (453, 460)
Point 11: (472, 451)
Point 12: (487, 437)
Point 13: (498, 420)
Point 14: (505, 401)
Point 15: (511, 379)
Point 16: (516, 358)
Point 17: (519, 337)
Point 18: (372, 291)
Point 19: (384, 281)
Point 20: (400, 279)
Point 21: (415, 284)
Point 22: (430, 291)
Point 23: (458, 293)
Point 24: (473, 289)
Point 25: (489, 288)
Point 26: (503, 293)
Point 27: (511, 306)
Point 28: (443, 307)
Point 29: (443, 320)
Point 30: (443, 332)
Point 31: (442, 345)
Point 32: (422, 361)
Point 33: (430, 363)
Point 34: (439, 366)
Point 35: (447, 365)
Point 36: (456, 365)
Point 37: (386, 311)
Point 38: (396, 307)
Point 39: (408, 308)
Point 40: (417, 315)
Point 41: (406, 316)
Point 42: (395, 315)
Point 43: (465, 320)
Point 44: (475, 315)
Point 45: (486, 317)
Point 46: (495, 323)
Point 47: (486, 326)
Point 48: (475, 324)
Point 49: (401, 397)
Point 50: (414, 388)
Point 51: (428, 383)
Point 52: (437, 386)
Point 53: (448, 385)
Point 54: (457, 392)
Point 55: (466, 403)
Point 56: (456, 410)
Point 57: (445, 413)
Point 58: (435, 413)
Point 59: (425, 412)
Point 60: (413, 407)
Point 61: (407, 398)
Point 62: (427, 396)
Point 63: (437, 397)
Point 64: (447, 397)
Point 65: (461, 402)
Point 66: (446, 400)
Point 67: (436, 400)
Point 68: (426, 399)
