Visage 1:
Point 1: (717, 338)
Point 2: (721, 387)
Point 3: (732, 435)
Point 4: (745, 481)
Point 5: (764, 523)
Point 6: (795, 561)
Point 7: (826, 597)
Point 8: (860, 625)
Point 9: (904, 631)
Point 10: (945, 621)
Point 11: (972, 588)
Point 12: (994, 549)
Point 13: (1015, 510)
Point 14: (1029, 466)
Point 15: (1037, 420)
Point 16: (1041, 371)
Point 17: (1040, 322)
Point 18: (738, 330)
Point 19: (759, 307)
Point 20: (793, 298)
Point 21: (828, 301)
Point 22: (862, 314)
Point 23: (905, 310)
Point 24: (935, 293)
Point 25: (969, 285)
Point 26: (1002, 286)
Point 27: (1027, 305)
Point 28: (887, 343)
Point 29: (891, 379)
Point 30: (894, 415)
Point 31: (897, 452)
Point 32: (854, 461)
Point 33: (873, 471)
Point 34: (895, 477)
Point 35: (915, 469)
Point 36: (931, 460)
Point 37: (776, 356)
Point 38: (795, 345)
Point 39: (819, 342)
Point 40: (841, 352)
Point 41: (820, 361)
Point 42: (796, 364)
Point 43: (926, 348)
Point 44: (948, 335)
Point 45: (973, 335)
Point 46: (992, 344)
Point 47: (975, 354)
Point 48: (951, 354)
Point 49: (826, 518)
Point 50: (853, 516)
Point 51: (876, 513)
Point 52: (892, 517)
Point 53: (908, 512)
Point 54: (930, 515)
Point 55: (950, 518)
Point 56: (931, 543)
Point 57: (912, 554)
Point 58: (894, 557)
Point 59: (876, 555)
Point 60: (853, 543)
Point 61: (838, 522)
Point 62: (876, 526)
Point 63: (892, 529)
Point 64: (909, 526)
Point 65: (941, 521)
Point 66: (910, 529)
Point 67: (893, 531)
Point 68: (876, 529)
Visage 2:
Point 1: (340, 319)
Point 2: (337, 339)
Point 3: (338, 362)
Point 4: (341, 383)
Point 5: (345, 405)
Point 6: (353, 426)
Point 7: (365, 444)
Point 8: (380, 457)
Point 9: (403, 462)
Point 10: (429, 459)
Point 11: (451, 450)
Point 12: (470, 436)
Point 13: (486, 420)
Point 14: (496, 399)
Point 15: (502, 376)
Point 16: (507, 352)
Point 17: (510, 329)
Point 18: (348, 292)
Point 19: (357, 282)
Point 20: (371, 279)
Point 21: (385, 283)
Point 22: (399, 290)
Point 23: (428, 291)
Point 24: (444, 285)
Point 25: (460, 281)
Point 26: (476, 286)
Point 27: (487, 297)
Point 28: (411, 306)
Point 29: (409, 319)
Point 30: (407, 331)
Point 31: (404, 344)
Point 32: (389, 363)
Point 33: (397, 365)
Point 34: (405, 366)
Point 35: (414, 366)
Point 36: (423, 365)
Point 37: (359, 312)
Point 38: (367, 305)
Point 39: (379, 306)
Point 40: (389, 314)
Point 41: (377, 315)
Point 42: (366, 315)
Point 43: (436, 316)
Point 44: (446, 308)
Point 45: (459, 309)
Point 46: (470, 316)
Point 47: (458, 319)
Point 48: (446, 318)
Point 49: (373, 399)
Point 50: (383, 389)
Point 51: (394, 383)
Point 52: (403, 386)
Point 53: (413, 384)
Point 54: (427, 390)
Point 55: (441, 401)
Point 56: (427, 409)
Point 57: (413, 414)
Point 58: (403, 414)
Point 59: (393, 413)
Point 60: (382, 408)
Point 61: (378, 399)
Point 62: (394, 397)
Point 63: (403, 398)
Point 64: (413, 398)
Point 65: (435, 401)
Point 66: (413, 400)
Point 67: (403, 401)
Point 68: (394, 400)
