Visage 1:
Point 1: (352, 324)
Point 2: (352, 345)
Point 3: (354, 367)
Point 4: (357, 389)
Point 5: (362, 411)
Point 6: (372, 429)
Point 7: (386, 445)
Point 8: (403, 455)
Point 9: (425, 460)
Point 10: (448, 458)
Point 11: (466, 449)
Point 12: (482, 436)
Point 13: (494, 421)
Point 14: (503, 403)
Point 15: (511, 383)
Point 16: (516, 362)
Point 17: (520, 342)
Point 18: (369, 292)
Point 19: (380, 281)
Point 20: (395, 279)
Point 21: (410, 283)
Point 22: (425, 290)
Point 23: (453, 292)
Point 24: (468, 288)
Point 25: (484, 288)
Point 26: (498, 293)
Point 27: (506, 305)
Point 28: (438, 307)
Point 29: (437, 319)
Point 30: (436, 330)
Point 31: (434, 343)
Point 32: (415, 361)
Point 33: (424, 363)
Point 34: (432, 365)
Point 35: (441, 365)
Point 36: (450, 364)
Point 37: (382, 313)
Point 38: (391, 308)
Point 39: (402, 309)
Point 40: (412, 315)
Point 41: (401, 317)
Point 42: (390, 317)
Point 43: (460, 320)
Point 44: (470, 316)
Point 45: (482, 317)
Point 46: (491, 324)
Point 47: (481, 326)
Point 48: (470, 324)
Point 49: (396, 397)
Point 50: (408, 388)
Point 51: (422, 383)
Point 52: (431, 386)
Point 53: (440, 384)
Point 54: (452, 391)
Point 55: (462, 402)
Point 56: (450, 409)
Point 57: (439, 412)
Point 58: (429, 412)
Point 59: (419, 410)
Point 60: (407, 406)
Point 61: (402, 397)
Point 62: (421, 395)
Point 63: (431, 396)
Point 64: (440, 396)
Point 65: (456, 401)
Point 66: (439, 399)
Point 67: (430, 399)
Point 68: (421, 397)
Visage 2:
Point 1: (720, 339)
Point 2: (728, 391)
Point 3: (741, 441)
Point 4: (756, 487)
Point 5: (779, 532)
Point 6: (811, 570)
Point 7: (845, 606)
Point 8: (886, 634)
Point 9: (930, 638)
Point 10: (968, 624)
Point 11: (989, 588)
Point 12: (1007, 546)
Point 13: (1026, 505)
Point 14: (1038, 459)
Point 15: (1043, 412)
Point 16: (1044, 365)
Point 17: (1041, 317)
Point 18: (749, 341)
Point 19: (773, 317)
Point 20: (809, 307)
Point 21: (848, 308)
Point 22: (885, 320)
Point 23: (926, 313)
Point 24: (956, 294)
Point 25: (987, 284)
Point 26: (1018, 285)
Point 27: (1039, 302)
Point 28: (912, 346)
Point 29: (918, 383)
Point 30: (924, 419)
Point 31: (931, 457)
Point 32: (882, 465)
Point 33: (903, 475)
Point 34: (926, 482)
Point 35: (945, 473)
Point 36: (959, 461)
Point 37: (793, 361)
Point 38: (814, 353)
Point 39: (838, 349)
Point 40: (860, 356)
Point 41: (840, 363)
Point 42: (817, 367)
Point 43: (947, 347)
Point 44: (969, 336)
Point 45: (991, 335)
Point 46: (1009, 341)
Point 47: (994, 348)
Point 48: (972, 348)
Point 49: (850, 522)
Point 50: (880, 519)
Point 51: (905, 518)
Point 52: (921, 521)
Point 53: (937, 517)
Point 54: (955, 516)
Point 55: (973, 516)
Point 56: (957, 539)
Point 57: (940, 552)
Point 58: (923, 556)
Point 59: (906, 555)
Point 60: (880, 545)
Point 61: (862, 524)
Point 62: (905, 528)
Point 63: (922, 530)
Point 64: (938, 527)
Point 65: (964, 519)
Point 66: (938, 529)
Point 67: (921, 533)
Point 68: (905, 531)
