Visage 1:
Point 1: (714, 331)
Point 2: (718, 382)
Point 3: (729, 431)
Point 4: (743, 478)
Point 5: (765, 521)
Point 6: (796, 559)
Point 7: (829, 594)
Point 8: (865, 622)
Point 9: (907, 627)
Point 10: (946, 616)
Point 11: (972, 582)
Point 12: (995, 542)
Point 13: (1015, 501)
Point 14: (1028, 456)
Point 15: (1035, 409)
Point 16: (1037, 361)
Point 17: (1035, 311)
Point 18: (736, 329)
Point 19: (757, 306)
Point 20: (791, 297)
Point 21: (827, 300)
Point 22: (862, 313)
Point 23: (902, 308)
Point 24: (932, 291)
Point 25: (966, 282)
Point 26: (1000, 283)
Point 27: (1025, 302)
Point 28: (887, 342)
Point 29: (890, 377)
Point 30: (894, 413)
Point 31: (897, 449)
Point 32: (854, 459)
Point 33: (873, 469)
Point 34: (894, 475)
Point 35: (914, 467)
Point 36: (930, 458)
Point 37: (775, 352)
Point 38: (794, 341)
Point 39: (819, 338)
Point 40: (841, 350)
Point 41: (820, 359)
Point 42: (795, 362)
Point 43: (924, 345)
Point 44: (945, 331)
Point 45: (970, 330)
Point 46: (989, 339)
Point 47: (972, 350)
Point 48: (948, 351)
Point 49: (828, 517)
Point 50: (852, 516)
Point 51: (875, 513)
Point 52: (891, 517)
Point 53: (907, 512)
Point 54: (928, 514)
Point 55: (945, 515)
Point 56: (929, 540)
Point 57: (911, 552)
Point 58: (894, 555)
Point 59: (876, 553)
Point 60: (853, 541)
Point 61: (839, 520)
Point 62: (875, 525)
Point 63: (892, 528)
Point 64: (908, 524)
Point 65: (936, 518)
Point 66: (909, 527)
Point 67: (893, 531)
Point 68: (876, 528)
Visage 2:
Point 1: (346, 323)
Point 2: (346, 345)
Point 3: (349, 368)
Point 4: (352, 390)
Point 5: (356, 412)
Point 6: (365, 432)
Point 7: (378, 449)
Point 8: (397, 460)
Point 9: (420, 465)
Point 10: (444, 462)
Point 11: (464, 453)
Point 12: (480, 439)
Point 13: (493, 422)
Point 14: (502, 402)
Point 15: (508, 381)
Point 16: (513, 359)
Point 17: (516, 337)
Point 18: (361, 294)
Point 19: (372, 283)
Point 20: (388, 281)
Point 21: (403, 285)
Point 22: (417, 292)
Point 23: (447, 294)
Point 24: (463, 288)
Point 25: (478, 286)
Point 26: (492, 291)
Point 27: (501, 302)
Point 28: (431, 309)
Point 29: (430, 323)
Point 30: (430, 335)
Point 31: (429, 349)
Point 32: (409, 366)
Point 33: (418, 368)
Point 34: (426, 370)
Point 35: (435, 369)
Point 36: (444, 369)
Point 37: (375, 317)
Point 38: (385, 313)
Point 39: (396, 313)
Point 40: (405, 319)
Point 41: (395, 321)
Point 42: (384, 320)
Point 43: (455, 322)
Point 44: (466, 318)
Point 45: (476, 320)
Point 46: (485, 325)
Point 47: (476, 327)
Point 48: (465, 326)
Point 49: (391, 402)
Point 50: (404, 393)
Point 51: (416, 388)
Point 52: (425, 391)
Point 53: (435, 389)
Point 54: (446, 395)
Point 55: (456, 405)
Point 56: (445, 413)
Point 57: (433, 417)
Point 58: (423, 417)
Point 59: (414, 416)
Point 60: (402, 412)
Point 61: (397, 402)
Point 62: (416, 400)
Point 63: (424, 401)
Point 64: (434, 401)
Point 65: (451, 405)
Point 66: (434, 403)
Point 67: (424, 404)
Point 68: (415, 402)
