Visage 1:
Point 1: (714, 338)
Point 2: (720, 385)
Point 3: (729, 431)
Point 4: (741, 477)
Point 5: (759, 521)
Point 6: (788, 560)
Point 7: (820, 597)
Point 8: (857, 625)
Point 9: (902, 631)
Point 10: (944, 622)
Point 11: (971, 589)
Point 12: (994, 549)
Point 13: (1016, 507)
Point 14: (1029, 461)
Point 15: (1035, 416)
Point 16: (1035, 369)
Point 17: (1033, 322)
Point 18: (736, 332)
Point 19: (757, 310)
Point 20: (792, 300)
Point 21: (828, 304)
Point 22: (863, 317)
Point 23: (902, 312)
Point 24: (932, 296)
Point 25: (965, 287)
Point 26: (996, 288)
Point 27: (1021, 306)
Point 28: (886, 349)
Point 29: (890, 382)
Point 30: (894, 414)
Point 31: (897, 448)
Point 32: (851, 461)
Point 33: (872, 470)
Point 34: (894, 476)
Point 35: (914, 469)
Point 36: (931, 459)
Point 37: (778, 367)
Point 38: (798, 366)
Point 39: (820, 363)
Point 40: (842, 361)
Point 41: (821, 372)
Point 42: (800, 375)
Point 43: (922, 357)
Point 44: (945, 357)
Point 45: (967, 357)
Point 46: (985, 357)
Point 47: (968, 365)
Point 48: (946, 365)
Point 49: (826, 519)
Point 50: (852, 515)
Point 51: (877, 512)
Point 52: (894, 516)
Point 53: (911, 511)
Point 54: (933, 514)
Point 55: (954, 518)
Point 56: (935, 541)
Point 57: (915, 554)
Point 58: (895, 557)
Point 59: (877, 555)
Point 60: (852, 544)
Point 61: (838, 522)
Point 62: (877, 526)
Point 63: (895, 529)
Point 64: (912, 525)
Point 65: (944, 521)
Point 66: (913, 529)
Point 67: (895, 532)
Point 68: (877, 529)
Visage 2:
Point 1: (344, 322)
Point 2: (344, 343)
Point 3: (345, 367)
Point 4: (349, 389)
Point 5: (353, 410)
Point 6: (361, 430)
Point 7: (374, 447)
Point 8: (392, 458)
Point 9: (415, 462)
Point 10: (439, 460)
Point 11: (460, 452)
Point 12: (478, 438)
Point 13: (491, 422)
Point 14: (500, 401)
Point 15: (506, 379)
Point 16: (510, 356)
Point 17: (514, 334)
Point 18: (356, 293)
Point 19: (367, 282)
Point 20: (382, 280)
Point 21: (397, 284)
Point 22: (411, 292)
Point 23: (438, 293)
Point 24: (454, 287)
Point 25: (470, 285)
Point 26: (486, 289)
Point 27: (496, 301)
Point 28: (423, 308)
Point 29: (422, 320)
Point 30: (421, 333)
Point 31: (419, 346)
Point 32: (402, 364)
Point 33: (410, 366)
Point 34: (419, 367)
Point 35: (427, 367)
Point 36: (436, 367)
Point 37: (369, 312)
Point 38: (377, 306)
Point 39: (389, 307)
Point 40: (399, 315)
Point 41: (388, 316)
Point 42: (376, 316)
Point 43: (447, 318)
Point 44: (457, 311)
Point 45: (469, 312)
Point 46: (479, 319)
Point 47: (469, 321)
Point 48: (457, 320)
Point 49: (384, 401)
Point 50: (396, 390)
Point 51: (408, 385)
Point 52: (417, 388)
Point 53: (427, 386)
Point 54: (439, 392)
Point 55: (451, 403)
Point 56: (438, 411)
Point 57: (426, 415)
Point 58: (416, 415)
Point 59: (407, 414)
Point 60: (395, 410)
Point 61: (389, 401)
Point 62: (408, 398)
Point 63: (417, 398)
Point 64: (427, 398)
Point 65: (445, 403)
Point 66: (427, 402)
Point 67: (417, 402)
Point 68: (408, 401)
