Visage 1:
Point 1: (713, 341)
Point 2: (718, 389)
Point 3: (729, 433)
Point 4: (741, 476)
Point 5: (757, 518)
Point 6: (784, 555)
Point 7: (812, 592)
Point 8: (845, 620)
Point 9: (887, 628)
Point 10: (929, 620)
Point 11: (956, 590)
Point 12: (980, 554)
Point 13: (1004, 515)
Point 14: (1020, 472)
Point 15: (1030, 427)
Point 16: (1037, 379)
Point 17: (1039, 328)
Point 18: (730, 330)
Point 19: (751, 308)
Point 20: (784, 301)
Point 21: (819, 306)
Point 22: (853, 319)
Point 23: (890, 316)
Point 24: (923, 299)
Point 25: (958, 291)
Point 26: (994, 292)
Point 27: (1021, 311)
Point 28: (874, 347)
Point 29: (876, 382)
Point 30: (877, 417)
Point 31: (878, 453)
Point 32: (838, 463)
Point 33: (857, 472)
Point 34: (878, 479)
Point 35: (898, 471)
Point 36: (915, 463)
Point 37: (767, 360)
Point 38: (787, 353)
Point 39: (810, 350)
Point 40: (833, 357)
Point 41: (810, 365)
Point 42: (788, 367)
Point 43: (917, 354)
Point 44: (940, 346)
Point 45: (964, 346)
Point 46: (984, 352)
Point 47: (965, 361)
Point 48: (941, 360)
Point 49: (813, 517)
Point 50: (837, 516)
Point 51: (859, 513)
Point 52: (877, 518)
Point 53: (894, 513)
Point 54: (918, 516)
Point 55: (942, 520)
Point 56: (919, 543)
Point 57: (897, 554)
Point 58: (878, 557)
Point 59: (858, 553)
Point 60: (837, 541)
Point 61: (825, 520)
Point 62: (859, 526)
Point 63: (877, 529)
Point 64: (895, 527)
Point 65: (932, 523)
Point 66: (895, 529)
Point 67: (878, 531)
Point 68: (859, 527)
Visage 2:
Point 1: (352, 323)
Point 2: (352, 345)
Point 3: (354, 367)
Point 4: (357, 388)
Point 5: (361, 409)
Point 6: (370, 428)
Point 7: (384, 444)
Point 8: (402, 455)
Point 9: (425, 460)
Point 10: (448, 458)
Point 11: (467, 450)
Point 12: (483, 437)
Point 13: (496, 422)
Point 14: (504, 403)
Point 15: (511, 383)
Point 16: (516, 362)
Point 17: (520, 341)
Point 18: (369, 292)
Point 19: (381, 281)
Point 20: (396, 278)
Point 21: (412, 282)
Point 22: (428, 290)
Point 23: (454, 292)
Point 24: (470, 288)
Point 25: (486, 287)
Point 26: (501, 293)
Point 27: (509, 306)
Point 28: (440, 307)
Point 29: (439, 319)
Point 30: (438, 331)
Point 31: (437, 344)
Point 32: (417, 362)
Point 33: (426, 363)
Point 34: (434, 366)
Point 35: (443, 365)
Point 36: (452, 365)
Point 37: (383, 311)
Point 38: (393, 305)
Point 39: (404, 306)
Point 40: (414, 314)
Point 41: (403, 316)
Point 42: (391, 315)
Point 43: (462, 320)
Point 44: (473, 314)
Point 45: (485, 315)
Point 46: (493, 323)
Point 47: (484, 325)
Point 48: (472, 324)
Point 49: (396, 397)
Point 50: (410, 387)
Point 51: (423, 382)
Point 52: (432, 386)
Point 53: (442, 384)
Point 54: (454, 391)
Point 55: (464, 402)
Point 56: (452, 410)
Point 57: (441, 413)
Point 58: (430, 413)
Point 59: (420, 411)
Point 60: (408, 406)
Point 61: (403, 397)
Point 62: (422, 395)
Point 63: (432, 396)
Point 64: (442, 396)
Point 65: (458, 402)
Point 66: (441, 399)
Point 67: (431, 399)
Point 68: (422, 397)
