Visage 1:
Point 1: (712, 331)
Point 2: (718, 380)
Point 3: (729, 428)
Point 4: (742, 473)
Point 5: (760, 518)
Point 6: (789, 558)
Point 7: (820, 594)
Point 8: (856, 624)
Point 9: (901, 630)
Point 10: (942, 620)
Point 11: (969, 587)
Point 12: (992, 548)
Point 13: (1013, 507)
Point 14: (1027, 463)
Point 15: (1033, 416)
Point 16: (1035, 366)
Point 17: (1033, 316)
Point 18: (734, 329)
Point 19: (754, 306)
Point 20: (787, 295)
Point 21: (823, 298)
Point 22: (857, 310)
Point 23: (899, 305)
Point 24: (930, 289)
Point 25: (963, 281)
Point 26: (995, 282)
Point 27: (1021, 301)
Point 28: (883, 341)
Point 29: (887, 376)
Point 30: (891, 410)
Point 31: (895, 446)
Point 32: (850, 456)
Point 33: (870, 465)
Point 34: (892, 471)
Point 35: (912, 463)
Point 36: (929, 453)
Point 37: (774, 360)
Point 38: (793, 358)
Point 39: (814, 354)
Point 40: (836, 352)
Point 41: (816, 362)
Point 42: (796, 365)
Point 43: (921, 348)
Point 44: (942, 346)
Point 45: (964, 347)
Point 46: (982, 346)
Point 47: (965, 354)
Point 48: (944, 354)
Point 49: (827, 514)
Point 50: (849, 510)
Point 51: (873, 507)
Point 52: (891, 511)
Point 53: (909, 506)
Point 54: (931, 509)
Point 55: (949, 513)
Point 56: (932, 536)
Point 57: (912, 549)
Point 58: (892, 552)
Point 59: (874, 550)
Point 60: (850, 538)
Point 61: (839, 517)
Point 62: (873, 521)
Point 63: (891, 524)
Point 64: (909, 521)
Point 65: (939, 516)
Point 66: (911, 522)
Point 67: (892, 525)
Point 68: (874, 522)
Visage 2:
Point 1: (345, 322)
Point 2: (346, 344)
Point 3: (349, 367)
Point 4: (352, 389)
Point 5: (357, 411)
Point 6: (366, 431)
Point 7: (379, 447)
Point 8: (396, 457)
Point 9: (419, 462)
Point 10: (443, 460)
Point 11: (462, 451)
Point 12: (479, 438)
Point 13: (492, 422)
Point 14: (500, 403)
Point 15: (507, 381)
Point 16: (511, 358)
Point 17: (515, 336)
Point 18: (361, 292)
Point 19: (372, 281)
Point 20: (388, 278)
Point 21: (403, 283)
Point 22: (418, 291)
Point 23: (447, 292)
Point 24: (462, 287)
Point 25: (478, 284)
Point 26: (492, 289)
Point 27: (501, 302)
Point 28: (431, 307)
Point 29: (430, 320)
Point 30: (429, 332)
Point 31: (428, 346)
Point 32: (410, 364)
Point 33: (418, 365)
Point 34: (426, 367)
Point 35: (435, 366)
Point 36: (444, 366)
Point 37: (375, 312)
Point 38: (384, 306)
Point 39: (397, 307)
Point 40: (406, 316)
Point 41: (395, 317)
Point 42: (383, 317)
Point 43: (455, 320)
Point 44: (466, 313)
Point 45: (478, 314)
Point 46: (487, 321)
Point 47: (477, 325)
Point 48: (466, 323)
Point 49: (391, 399)
Point 50: (403, 391)
Point 51: (416, 385)
Point 52: (425, 388)
Point 53: (435, 386)
Point 54: (446, 393)
Point 55: (457, 403)
Point 56: (445, 411)
Point 57: (434, 415)
Point 58: (424, 415)
Point 59: (414, 414)
Point 60: (402, 409)
Point 61: (397, 400)
Point 62: (415, 398)
Point 63: (425, 399)
Point 64: (435, 399)
Point 65: (451, 403)
Point 66: (435, 401)
Point 67: (424, 401)
Point 68: (415, 400)
