Visage 1:
Point 1: (712, 340)
Point 2: (720, 390)
Point 3: (732, 437)
Point 4: (744, 482)
Point 5: (765, 526)
Point 6: (795, 563)
Point 7: (826, 598)
Point 8: (861, 626)
Point 9: (902, 632)
Point 10: (942, 622)
Point 11: (968, 588)
Point 12: (990, 550)
Point 13: (1012, 511)
Point 14: (1026, 466)
Point 15: (1034, 421)
Point 16: (1039, 373)
Point 17: (1038, 322)
Point 18: (734, 335)
Point 19: (755, 313)
Point 20: (790, 304)
Point 21: (826, 308)
Point 22: (861, 321)
Point 23: (899, 317)
Point 24: (931, 299)
Point 25: (965, 290)
Point 26: (998, 290)
Point 27: (1025, 309)
Point 28: (884, 348)
Point 29: (887, 385)
Point 30: (890, 421)
Point 31: (893, 458)
Point 32: (851, 465)
Point 33: (871, 475)
Point 34: (892, 482)
Point 35: (912, 473)
Point 36: (929, 463)
Point 37: (775, 362)
Point 38: (794, 357)
Point 39: (816, 353)
Point 40: (838, 356)
Point 41: (817, 364)
Point 42: (796, 367)
Point 43: (927, 352)
Point 44: (949, 346)
Point 45: (971, 346)
Point 46: (991, 350)
Point 47: (972, 357)
Point 48: (951, 356)
Point 49: (825, 520)
Point 50: (850, 518)
Point 51: (873, 516)
Point 52: (890, 521)
Point 53: (907, 516)
Point 54: (929, 518)
Point 55: (951, 520)
Point 56: (930, 545)
Point 57: (910, 557)
Point 58: (892, 561)
Point 59: (873, 558)
Point 60: (850, 546)
Point 61: (837, 524)
Point 62: (873, 528)
Point 63: (891, 531)
Point 64: (908, 528)
Point 65: (940, 523)
Point 66: (908, 532)
Point 67: (891, 535)
Point 68: (873, 532)
Visage 2:
Point 1: (351, 324)
Point 2: (352, 346)
Point 3: (354, 369)
Point 4: (357, 390)
Point 5: (362, 412)
Point 6: (372, 430)
Point 7: (386, 445)
Point 8: (403, 455)
Point 9: (425, 460)
Point 10: (447, 458)
Point 11: (466, 450)
Point 12: (482, 437)
Point 13: (494, 422)
Point 14: (503, 404)
Point 15: (510, 384)
Point 16: (516, 363)
Point 17: (520, 342)
Point 18: (369, 292)
Point 19: (380, 281)
Point 20: (395, 278)
Point 21: (411, 283)
Point 22: (426, 290)
Point 23: (454, 292)
Point 24: (470, 289)
Point 25: (486, 288)
Point 26: (500, 293)
Point 27: (508, 307)
Point 28: (439, 306)
Point 29: (438, 319)
Point 30: (437, 331)
Point 31: (436, 344)
Point 32: (417, 362)
Point 33: (425, 364)
Point 34: (434, 366)
Point 35: (442, 365)
Point 36: (451, 365)
Point 37: (382, 311)
Point 38: (392, 304)
Point 39: (404, 305)
Point 40: (413, 315)
Point 41: (402, 316)
Point 42: (390, 315)
Point 43: (461, 320)
Point 44: (472, 313)
Point 45: (485, 314)
Point 46: (493, 322)
Point 47: (484, 325)
Point 48: (472, 324)
Point 49: (396, 397)
Point 50: (409, 388)
Point 51: (423, 383)
Point 52: (432, 386)
Point 53: (441, 384)
Point 54: (453, 391)
Point 55: (463, 401)
Point 56: (451, 410)
Point 57: (440, 413)
Point 58: (430, 414)
Point 59: (420, 412)
Point 60: (407, 407)
Point 61: (402, 397)
Point 62: (422, 396)
Point 63: (431, 397)
Point 64: (441, 397)
Point 65: (457, 401)
Point 66: (441, 399)
Point 67: (431, 400)
Point 68: (421, 398)
