Visage 1:
Point 1: (716, 342)
Point 2: (724, 390)
Point 3: (736, 435)
Point 4: (749, 479)
Point 5: (768, 521)
Point 6: (796, 558)
Point 7: (826, 594)
Point 8: (862, 622)
Point 9: (907, 628)
Point 10: (950, 616)
Point 11: (977, 582)
Point 12: (1000, 542)
Point 13: (1021, 501)
Point 14: (1033, 457)
Point 15: (1038, 412)
Point 16: (1039, 364)
Point 17: (1036, 316)
Point 18: (737, 326)
Point 19: (757, 303)
Point 20: (792, 291)
Point 21: (829, 293)
Point 22: (864, 305)
Point 23: (903, 300)
Point 24: (934, 283)
Point 25: (967, 274)
Point 26: (1000, 276)
Point 27: (1024, 297)
Point 28: (888, 333)
Point 29: (892, 368)
Point 30: (895, 403)
Point 31: (899, 439)
Point 32: (857, 450)
Point 33: (876, 460)
Point 34: (898, 466)
Point 35: (917, 458)
Point 36: (933, 448)
Point 37: (781, 353)
Point 38: (800, 345)
Point 39: (821, 341)
Point 40: (842, 345)
Point 41: (823, 353)
Point 42: (802, 357)
Point 43: (928, 340)
Point 44: (948, 333)
Point 45: (969, 333)
Point 46: (986, 339)
Point 47: (970, 346)
Point 48: (950, 345)
Point 49: (833, 510)
Point 50: (858, 507)
Point 51: (880, 505)
Point 52: (897, 509)
Point 53: (914, 504)
Point 54: (937, 506)
Point 55: (957, 509)
Point 56: (938, 531)
Point 57: (917, 542)
Point 58: (898, 546)
Point 59: (880, 543)
Point 60: (858, 532)
Point 61: (843, 513)
Point 62: (880, 517)
Point 63: (897, 519)
Point 64: (915, 517)
Point 65: (948, 512)
Point 66: (915, 518)
Point 67: (897, 521)
Point 68: (880, 518)
Visage 2:
Point 1: (339, 322)
Point 2: (339, 345)
Point 3: (342, 369)
Point 4: (346, 391)
Point 5: (352, 413)
Point 6: (361, 433)
Point 7: (375, 451)
Point 8: (393, 462)
Point 9: (416, 467)
Point 10: (440, 465)
Point 11: (459, 454)
Point 12: (476, 439)
Point 13: (488, 421)
Point 14: (496, 400)
Point 15: (502, 378)
Point 16: (507, 355)
Point 17: (510, 333)
Point 18: (355, 290)
Point 19: (366, 279)
Point 20: (382, 277)
Point 21: (397, 282)
Point 22: (412, 290)
Point 23: (441, 292)
Point 24: (457, 287)
Point 25: (473, 284)
Point 26: (488, 288)
Point 27: (497, 301)
Point 28: (426, 309)
Point 29: (425, 322)
Point 30: (425, 335)
Point 31: (424, 349)
Point 32: (406, 367)
Point 33: (414, 368)
Point 34: (422, 370)
Point 35: (430, 370)
Point 36: (439, 369)
Point 37: (368, 313)
Point 38: (378, 306)
Point 39: (391, 307)
Point 40: (401, 317)
Point 41: (389, 319)
Point 42: (377, 319)
Point 43: (449, 321)
Point 44: (460, 313)
Point 45: (473, 314)
Point 46: (482, 322)
Point 47: (473, 327)
Point 48: (460, 325)
Point 49: (386, 403)
Point 50: (399, 393)
Point 51: (412, 389)
Point 52: (421, 391)
Point 53: (431, 390)
Point 54: (442, 396)
Point 55: (453, 405)
Point 56: (441, 415)
Point 57: (430, 419)
Point 58: (419, 419)
Point 59: (410, 418)
Point 60: (398, 414)
Point 61: (392, 403)
Point 62: (411, 401)
Point 63: (420, 402)
Point 64: (430, 402)
Point 65: (447, 405)
Point 66: (430, 404)
Point 67: (420, 405)
Point 68: (411, 404)
