Visage 1:
Point 1: (716, 338)
Point 2: (722, 386)
Point 3: (733, 434)
Point 4: (746, 479)
Point 5: (767, 521)
Point 6: (796, 558)
Point 7: (828, 592)
Point 8: (865, 619)
Point 9: (907, 623)
Point 10: (947, 611)
Point 11: (974, 579)
Point 12: (998, 540)
Point 13: (1019, 501)
Point 14: (1032, 457)
Point 15: (1039, 410)
Point 16: (1043, 363)
Point 17: (1041, 314)
Point 18: (736, 326)
Point 19: (757, 302)
Point 20: (791, 291)
Point 21: (827, 294)
Point 22: (861, 305)
Point 23: (902, 301)
Point 24: (933, 284)
Point 25: (965, 276)
Point 26: (999, 276)
Point 27: (1024, 294)
Point 28: (886, 334)
Point 29: (889, 369)
Point 30: (893, 404)
Point 31: (897, 440)
Point 32: (855, 451)
Point 33: (874, 460)
Point 34: (895, 466)
Point 35: (914, 458)
Point 36: (930, 449)
Point 37: (777, 349)
Point 38: (795, 337)
Point 39: (819, 334)
Point 40: (840, 344)
Point 41: (820, 353)
Point 42: (797, 356)
Point 43: (925, 339)
Point 44: (945, 326)
Point 45: (969, 325)
Point 46: (987, 334)
Point 47: (971, 344)
Point 48: (948, 344)
Point 49: (830, 510)
Point 50: (855, 508)
Point 51: (878, 505)
Point 52: (895, 509)
Point 53: (912, 504)
Point 54: (934, 507)
Point 55: (955, 510)
Point 56: (935, 532)
Point 57: (915, 543)
Point 58: (896, 546)
Point 59: (878, 543)
Point 60: (855, 533)
Point 61: (842, 513)
Point 62: (877, 517)
Point 63: (895, 520)
Point 64: (913, 516)
Point 65: (947, 512)
Point 66: (913, 519)
Point 67: (896, 522)
Point 68: (878, 519)
Visage 2:
Point 1: (343, 320)
Point 2: (344, 343)
Point 3: (346, 366)
Point 4: (350, 388)
Point 5: (354, 410)
Point 6: (363, 431)
Point 7: (376, 448)
Point 8: (394, 460)
Point 9: (418, 465)
Point 10: (443, 463)
Point 11: (463, 453)
Point 12: (479, 439)
Point 13: (491, 421)
Point 14: (499, 401)
Point 15: (506, 379)
Point 16: (510, 357)
Point 17: (514, 334)
Point 18: (358, 292)
Point 19: (370, 282)
Point 20: (385, 279)
Point 21: (401, 284)
Point 22: (415, 292)
Point 23: (445, 293)
Point 24: (461, 288)
Point 25: (476, 286)
Point 26: (490, 290)
Point 27: (500, 301)
Point 28: (429, 309)
Point 29: (428, 323)
Point 30: (428, 336)
Point 31: (427, 350)
Point 32: (408, 366)
Point 33: (416, 368)
Point 34: (424, 370)
Point 35: (433, 369)
Point 36: (441, 369)
Point 37: (372, 313)
Point 38: (382, 308)
Point 39: (395, 309)
Point 40: (404, 317)
Point 41: (393, 319)
Point 42: (381, 319)
Point 43: (453, 321)
Point 44: (463, 315)
Point 45: (475, 316)
Point 46: (484, 322)
Point 47: (475, 326)
Point 48: (463, 325)
Point 49: (389, 402)
Point 50: (402, 393)
Point 51: (414, 388)
Point 52: (423, 391)
Point 53: (433, 389)
Point 54: (445, 396)
Point 55: (455, 405)
Point 56: (444, 414)
Point 57: (432, 418)
Point 58: (421, 418)
Point 59: (411, 417)
Point 60: (400, 412)
Point 61: (395, 402)
Point 62: (413, 401)
Point 63: (422, 402)
Point 64: (433, 401)
Point 65: (450, 405)
Point 66: (432, 404)
Point 67: (422, 404)
Point 68: (413, 403)
