Visage 1:
Point 1: (715, 339)
Point 2: (721, 386)
Point 3: (731, 431)
Point 4: (742, 476)
Point 5: (760, 519)
Point 6: (789, 556)
Point 7: (821, 592)
Point 8: (858, 619)
Point 9: (904, 626)
Point 10: (948, 615)
Point 11: (975, 581)
Point 12: (999, 539)
Point 13: (1018, 496)
Point 14: (1028, 452)
Point 15: (1033, 406)
Point 16: (1031, 359)
Point 17: (1027, 313)
Point 18: (735, 327)
Point 19: (755, 303)
Point 20: (789, 293)
Point 21: (826, 295)
Point 22: (861, 308)
Point 23: (897, 303)
Point 24: (927, 286)
Point 25: (959, 277)
Point 26: (992, 279)
Point 27: (1015, 299)
Point 28: (883, 339)
Point 29: (887, 371)
Point 30: (891, 403)
Point 31: (895, 436)
Point 32: (851, 451)
Point 33: (871, 460)
Point 34: (893, 466)
Point 35: (913, 458)
Point 36: (930, 449)
Point 37: (776, 361)
Point 38: (795, 359)
Point 39: (816, 355)
Point 40: (839, 353)
Point 41: (819, 363)
Point 42: (798, 366)
Point 43: (919, 349)
Point 44: (942, 348)
Point 45: (962, 349)
Point 46: (981, 348)
Point 47: (963, 356)
Point 48: (943, 355)
Point 49: (827, 511)
Point 50: (854, 506)
Point 51: (878, 503)
Point 52: (895, 507)
Point 53: (913, 502)
Point 54: (935, 504)
Point 55: (955, 508)
Point 56: (936, 532)
Point 57: (915, 544)
Point 58: (896, 548)
Point 59: (878, 545)
Point 60: (854, 535)
Point 61: (840, 514)
Point 62: (877, 517)
Point 63: (895, 520)
Point 64: (913, 516)
Point 65: (944, 511)
Point 66: (914, 519)
Point 67: (896, 522)
Point 68: (878, 519)
Visage 2:
Point 1: (346, 321)
Point 2: (346, 343)
Point 3: (348, 366)
Point 4: (352, 388)
Point 5: (356, 409)
Point 6: (364, 430)
Point 7: (378, 446)
Point 8: (396, 459)
Point 9: (419, 464)
Point 10: (443, 462)
Point 11: (463, 453)
Point 12: (480, 438)
Point 13: (492, 421)
Point 14: (500, 401)
Point 15: (506, 379)
Point 16: (511, 357)
Point 17: (514, 335)
Point 18: (361, 292)
Point 19: (372, 281)
Point 20: (388, 278)
Point 21: (403, 283)
Point 22: (417, 291)
Point 23: (446, 292)
Point 24: (462, 288)
Point 25: (477, 285)
Point 26: (492, 289)
Point 27: (501, 301)
Point 28: (431, 308)
Point 29: (430, 321)
Point 30: (429, 334)
Point 31: (429, 348)
Point 32: (410, 365)
Point 33: (418, 367)
Point 34: (426, 369)
Point 35: (435, 368)
Point 36: (443, 368)
Point 37: (375, 312)
Point 38: (385, 306)
Point 39: (397, 307)
Point 40: (406, 316)
Point 41: (395, 318)
Point 42: (383, 317)
Point 43: (455, 321)
Point 44: (465, 313)
Point 45: (477, 314)
Point 46: (486, 322)
Point 47: (477, 326)
Point 48: (465, 324)
Point 49: (390, 401)
Point 50: (403, 392)
Point 51: (416, 387)
Point 52: (424, 390)
Point 53: (434, 388)
Point 54: (446, 395)
Point 55: (457, 405)
Point 56: (445, 414)
Point 57: (433, 417)
Point 58: (423, 418)
Point 59: (413, 416)
Point 60: (402, 411)
Point 61: (396, 402)
Point 62: (415, 400)
Point 63: (424, 401)
Point 64: (434, 401)
Point 65: (451, 404)
Point 66: (434, 403)
Point 67: (424, 403)
Point 68: (414, 402)
