Visage 1:
Point 1: (718, 334)
Point 2: (724, 381)
Point 3: (735, 427)
Point 4: (748, 472)
Point 5: (766, 516)
Point 6: (794, 555)
Point 7: (826, 591)
Point 8: (863, 620)
Point 9: (908, 625)
Point 10: (951, 614)
Point 11: (978, 581)
Point 12: (1002, 540)
Point 13: (1022, 499)
Point 14: (1034, 454)
Point 15: (1040, 408)
Point 16: (1041, 359)
Point 17: (1037, 309)
Point 18: (738, 326)
Point 19: (759, 303)
Point 20: (793, 293)
Point 21: (829, 295)
Point 22: (863, 306)
Point 23: (903, 301)
Point 24: (935, 284)
Point 25: (968, 275)
Point 26: (1002, 277)
Point 27: (1028, 296)
Point 28: (888, 336)
Point 29: (892, 370)
Point 30: (896, 403)
Point 31: (900, 439)
Point 32: (858, 450)
Point 33: (877, 459)
Point 34: (899, 465)
Point 35: (917, 457)
Point 36: (934, 448)
Point 37: (776, 357)
Point 38: (796, 356)
Point 39: (817, 353)
Point 40: (841, 349)
Point 41: (819, 359)
Point 42: (798, 363)
Point 43: (928, 344)
Point 44: (951, 343)
Point 45: (972, 344)
Point 46: (992, 343)
Point 47: (974, 351)
Point 48: (952, 350)
Point 49: (833, 510)
Point 50: (857, 506)
Point 51: (881, 503)
Point 52: (898, 506)
Point 53: (916, 501)
Point 54: (937, 503)
Point 55: (955, 507)
Point 56: (938, 531)
Point 57: (919, 544)
Point 58: (900, 547)
Point 59: (881, 545)
Point 60: (858, 534)
Point 61: (845, 513)
Point 62: (881, 517)
Point 63: (899, 519)
Point 64: (917, 516)
Point 65: (946, 510)
Point 66: (917, 517)
Point 67: (899, 520)
Point 68: (882, 518)
Visage 2:
Point 1: (340, 319)
Point 2: (340, 343)
Point 3: (342, 367)
Point 4: (346, 389)
Point 5: (350, 412)
Point 6: (359, 432)
Point 7: (373, 450)
Point 8: (391, 461)
Point 9: (415, 466)
Point 10: (439, 464)
Point 11: (459, 454)
Point 12: (476, 438)
Point 13: (488, 420)
Point 14: (496, 400)
Point 15: (503, 377)
Point 16: (507, 355)
Point 17: (510, 333)
Point 18: (355, 290)
Point 19: (366, 279)
Point 20: (381, 277)
Point 21: (397, 282)
Point 22: (411, 290)
Point 23: (441, 292)
Point 24: (456, 287)
Point 25: (472, 284)
Point 26: (487, 288)
Point 27: (496, 300)
Point 28: (426, 308)
Point 29: (425, 322)
Point 30: (424, 335)
Point 31: (423, 349)
Point 32: (404, 366)
Point 33: (413, 368)
Point 34: (421, 370)
Point 35: (430, 369)
Point 36: (438, 369)
Point 37: (368, 313)
Point 38: (378, 306)
Point 39: (391, 307)
Point 40: (400, 317)
Point 41: (389, 319)
Point 42: (377, 318)
Point 43: (449, 321)
Point 44: (460, 313)
Point 45: (472, 314)
Point 46: (481, 322)
Point 47: (472, 326)
Point 48: (460, 325)
Point 49: (385, 402)
Point 50: (398, 393)
Point 51: (411, 388)
Point 52: (420, 391)
Point 53: (430, 389)
Point 54: (442, 395)
Point 55: (453, 405)
Point 56: (441, 414)
Point 57: (429, 418)
Point 58: (419, 419)
Point 59: (409, 417)
Point 60: (397, 413)
Point 61: (391, 403)
Point 62: (410, 401)
Point 63: (420, 402)
Point 64: (430, 401)
Point 65: (447, 405)
Point 66: (430, 404)
Point 67: (419, 405)
Point 68: (410, 404)
