Visage 1:
Point 1: (350, 325)
Point 2: (351, 346)
Point 3: (352, 369)
Point 4: (356, 390)
Point 5: (362, 412)
Point 6: (372, 430)
Point 7: (386, 445)
Point 8: (403, 455)
Point 9: (426, 460)
Point 10: (448, 458)
Point 11: (467, 449)
Point 12: (483, 436)
Point 13: (495, 421)
Point 14: (504, 402)
Point 15: (511, 382)
Point 16: (516, 362)
Point 17: (520, 341)
Point 18: (368, 292)
Point 19: (380, 281)
Point 20: (395, 279)
Point 21: (411, 283)
Point 22: (426, 290)
Point 23: (453, 292)
Point 24: (468, 289)
Point 25: (484, 288)
Point 26: (498, 292)
Point 27: (506, 305)
Point 28: (438, 306)
Point 29: (437, 318)
Point 30: (436, 329)
Point 31: (435, 342)
Point 32: (417, 361)
Point 33: (425, 363)
Point 34: (433, 365)
Point 35: (441, 364)
Point 36: (450, 364)
Point 37: (383, 312)
Point 38: (392, 308)
Point 39: (404, 308)
Point 40: (413, 315)
Point 41: (402, 317)
Point 42: (391, 316)
Point 43: (461, 320)
Point 44: (471, 315)
Point 45: (482, 317)
Point 46: (491, 323)
Point 47: (482, 326)
Point 48: (471, 324)
Point 49: (397, 396)
Point 50: (409, 387)
Point 51: (422, 381)
Point 52: (432, 385)
Point 53: (441, 383)
Point 54: (453, 390)
Point 55: (463, 401)
Point 56: (451, 409)
Point 57: (440, 412)
Point 58: (430, 412)
Point 59: (419, 411)
Point 60: (407, 406)
Point 61: (403, 397)
Point 62: (421, 395)
Point 63: (431, 396)
Point 64: (441, 396)
Point 65: (457, 401)
Point 66: (440, 399)
Point 67: (431, 399)
Point 68: (421, 397)
Visage 2:
Point 1: (720, 343)
Point 2: (729, 393)
Point 3: (741, 441)
Point 4: (754, 488)
Point 5: (777, 531)
Point 6: (809, 568)
Point 7: (844, 603)
Point 8: (885, 630)
Point 9: (928, 635)
Point 10: (967, 624)
Point 11: (990, 588)
Point 12: (1008, 546)
Point 13: (1027, 504)
Point 14: (1038, 457)
Point 15: (1042, 410)
Point 16: (1041, 363)
Point 17: (1036, 317)
Point 18: (749, 340)
Point 19: (773, 316)
Point 20: (809, 306)
Point 21: (847, 308)
Point 22: (883, 319)
Point 23: (923, 313)
Point 24: (953, 294)
Point 25: (984, 284)
Point 26: (1015, 285)
Point 27: (1036, 305)
Point 28: (909, 347)
Point 29: (916, 383)
Point 30: (922, 419)
Point 31: (929, 456)
Point 32: (881, 465)
Point 33: (902, 474)
Point 34: (925, 480)
Point 35: (944, 471)
Point 36: (958, 460)
Point 37: (791, 363)
Point 38: (813, 354)
Point 39: (837, 350)
Point 40: (859, 357)
Point 41: (839, 365)
Point 42: (815, 369)
Point 43: (945, 349)
Point 44: (967, 338)
Point 45: (990, 336)
Point 46: (1008, 342)
Point 47: (993, 351)
Point 48: (970, 352)
Point 49: (850, 523)
Point 50: (879, 517)
Point 51: (904, 514)
Point 52: (921, 517)
Point 53: (939, 512)
Point 54: (958, 513)
Point 55: (972, 517)
Point 56: (959, 540)
Point 57: (942, 553)
Point 58: (924, 557)
Point 59: (905, 556)
Point 60: (880, 546)
Point 61: (863, 526)
Point 62: (905, 528)
Point 63: (923, 530)
Point 64: (940, 526)
Point 65: (963, 520)
Point 66: (940, 528)
Point 67: (923, 532)
Point 68: (905, 530)
