Visage 1:
Point 1: (716, 337)
Point 2: (722, 386)
Point 3: (732, 435)
Point 4: (745, 480)
Point 5: (765, 522)
Point 6: (794, 559)
Point 7: (825, 594)
Point 8: (861, 624)
Point 9: (903, 630)
Point 10: (943, 619)
Point 11: (970, 585)
Point 12: (994, 546)
Point 13: (1014, 506)
Point 14: (1027, 462)
Point 15: (1033, 416)
Point 16: (1036, 369)
Point 17: (1034, 320)
Point 18: (735, 332)
Point 19: (757, 308)
Point 20: (792, 298)
Point 21: (829, 301)
Point 22: (864, 313)
Point 23: (900, 309)
Point 24: (931, 292)
Point 25: (965, 283)
Point 26: (998, 284)
Point 27: (1024, 303)
Point 28: (886, 340)
Point 29: (890, 376)
Point 30: (893, 412)
Point 31: (897, 448)
Point 32: (854, 459)
Point 33: (874, 468)
Point 34: (895, 475)
Point 35: (915, 467)
Point 36: (931, 456)
Point 37: (776, 353)
Point 38: (794, 340)
Point 39: (819, 337)
Point 40: (841, 349)
Point 41: (820, 358)
Point 42: (796, 361)
Point 43: (924, 345)
Point 44: (945, 330)
Point 45: (969, 329)
Point 46: (987, 339)
Point 47: (972, 350)
Point 48: (947, 351)
Point 49: (829, 517)
Point 50: (854, 515)
Point 51: (877, 512)
Point 52: (893, 516)
Point 53: (910, 511)
Point 54: (931, 514)
Point 55: (951, 516)
Point 56: (932, 540)
Point 57: (912, 552)
Point 58: (894, 555)
Point 59: (877, 552)
Point 60: (854, 540)
Point 61: (841, 520)
Point 62: (877, 524)
Point 63: (894, 527)
Point 64: (910, 524)
Point 65: (942, 519)
Point 66: (911, 526)
Point 67: (894, 529)
Point 68: (877, 526)
Visage 2:
Point 1: (345, 325)
Point 2: (346, 347)
Point 3: (349, 371)
Point 4: (353, 392)
Point 5: (358, 414)
Point 6: (368, 434)
Point 7: (382, 450)
Point 8: (399, 460)
Point 9: (422, 465)
Point 10: (445, 462)
Point 11: (463, 453)
Point 12: (480, 440)
Point 13: (492, 424)
Point 14: (501, 404)
Point 15: (507, 383)
Point 16: (512, 361)
Point 17: (516, 339)
Point 18: (362, 295)
Point 19: (372, 284)
Point 20: (387, 281)
Point 21: (402, 286)
Point 22: (417, 293)
Point 23: (447, 294)
Point 24: (462, 290)
Point 25: (477, 288)
Point 26: (491, 292)
Point 27: (500, 304)
Point 28: (430, 310)
Point 29: (429, 323)
Point 30: (429, 335)
Point 31: (428, 348)
Point 32: (410, 367)
Point 33: (418, 368)
Point 34: (426, 370)
Point 35: (434, 370)
Point 36: (443, 369)
Point 37: (376, 320)
Point 38: (386, 318)
Point 39: (397, 317)
Point 40: (406, 320)
Point 41: (395, 323)
Point 42: (385, 323)
Point 43: (453, 324)
Point 44: (463, 323)
Point 45: (474, 325)
Point 46: (483, 328)
Point 47: (473, 330)
Point 48: (462, 328)
Point 49: (390, 402)
Point 50: (402, 393)
Point 51: (415, 388)
Point 52: (424, 391)
Point 53: (434, 389)
Point 54: (446, 395)
Point 55: (457, 405)
Point 56: (446, 414)
Point 57: (434, 418)
Point 58: (423, 418)
Point 59: (413, 417)
Point 60: (401, 412)
Point 61: (395, 403)
Point 62: (414, 401)
Point 63: (424, 402)
Point 64: (434, 402)
Point 65: (451, 405)
Point 66: (434, 404)
Point 67: (424, 405)
Point 68: (414, 403)
