Visage 1:
Point 1: (715, 337)
Point 2: (721, 386)
Point 3: (731, 434)
Point 4: (744, 481)
Point 5: (765, 523)
Point 6: (795, 560)
Point 7: (826, 595)
Point 8: (862, 623)
Point 9: (905, 628)
Point 10: (946, 617)
Point 11: (972, 582)
Point 12: (994, 543)
Point 13: (1014, 504)
Point 14: (1027, 460)
Point 15: (1034, 414)
Point 16: (1036, 366)
Point 17: (1034, 318)
Point 18: (736, 328)
Point 19: (758, 306)
Point 20: (792, 297)
Point 21: (827, 300)
Point 22: (860, 312)
Point 23: (903, 307)
Point 24: (933, 291)
Point 25: (965, 283)
Point 26: (998, 284)
Point 27: (1023, 301)
Point 28: (885, 341)
Point 29: (889, 377)
Point 30: (893, 412)
Point 31: (897, 449)
Point 32: (854, 459)
Point 33: (873, 468)
Point 34: (895, 474)
Point 35: (914, 466)
Point 36: (930, 457)
Point 37: (774, 354)
Point 38: (793, 341)
Point 39: (818, 338)
Point 40: (841, 350)
Point 41: (819, 360)
Point 42: (795, 363)
Point 43: (923, 345)
Point 44: (944, 330)
Point 45: (970, 329)
Point 46: (988, 340)
Point 47: (972, 351)
Point 48: (947, 351)
Point 49: (828, 517)
Point 50: (854, 513)
Point 51: (878, 510)
Point 52: (893, 514)
Point 53: (909, 509)
Point 54: (930, 512)
Point 55: (950, 515)
Point 56: (932, 540)
Point 57: (911, 553)
Point 58: (894, 556)
Point 59: (877, 554)
Point 60: (854, 541)
Point 61: (840, 519)
Point 62: (877, 523)
Point 63: (894, 526)
Point 64: (910, 523)
Point 65: (941, 519)
Point 66: (910, 527)
Point 67: (894, 530)
Point 68: (878, 527)
Visage 2:
Point 1: (344, 324)
Point 2: (345, 346)
Point 3: (348, 369)
Point 4: (352, 391)
Point 5: (357, 413)
Point 6: (366, 434)
Point 7: (380, 451)
Point 8: (398, 461)
Point 9: (422, 466)
Point 10: (445, 463)
Point 11: (464, 454)
Point 12: (480, 440)
Point 13: (492, 423)
Point 14: (501, 404)
Point 15: (507, 383)
Point 16: (512, 361)
Point 17: (515, 339)
Point 18: (361, 295)
Point 19: (372, 284)
Point 20: (388, 281)
Point 21: (403, 286)
Point 22: (418, 293)
Point 23: (446, 295)
Point 24: (462, 290)
Point 25: (477, 288)
Point 26: (491, 292)
Point 27: (500, 303)
Point 28: (430, 309)
Point 29: (430, 322)
Point 30: (429, 335)
Point 31: (428, 348)
Point 32: (410, 367)
Point 33: (418, 369)
Point 34: (426, 371)
Point 35: (435, 370)
Point 36: (444, 369)
Point 37: (376, 320)
Point 38: (386, 319)
Point 39: (396, 318)
Point 40: (406, 320)
Point 41: (396, 322)
Point 42: (386, 323)
Point 43: (453, 323)
Point 44: (463, 324)
Point 45: (473, 326)
Point 46: (482, 329)
Point 47: (472, 330)
Point 48: (462, 327)
Point 49: (390, 402)
Point 50: (402, 394)
Point 51: (415, 389)
Point 52: (424, 391)
Point 53: (434, 389)
Point 54: (446, 396)
Point 55: (457, 406)
Point 56: (445, 415)
Point 57: (433, 419)
Point 58: (423, 419)
Point 59: (414, 418)
Point 60: (401, 413)
Point 61: (396, 403)
Point 62: (415, 402)
Point 63: (424, 403)
Point 64: (434, 402)
Point 65: (451, 406)
Point 66: (434, 404)
Point 67: (424, 405)
Point 68: (415, 403)
