763.9127807617188 152.85826110839844 772.6385498046875 143.66429138183594 748.5096435546875 145.32321166992188 0.0 0.0 718.976318359375 165.16549682617188 777.0946655273438 229.78546142578125 673.3167724609375 235.269287109375 796.6730346679688 273.3990478515625 608.5765991210938 291.8009338378906 815.3986206054688 226.54391479492188 622.1370239257812 245.41845703125 729.2738647460938 374.9792785644531 659.6071166992188 382.56927490234375 771.570556640625 481.3620910644531 679.063232421875 507.2745361328125 743.8394775390625 573.75634765625 638.98486328125 614.89208984375 

Poses:
{'Angle jambe droite : ': 150.70630914634535, 'Angle jambe gauche : ': 141.61122242783895, 'Angle dos : ': 3.1928840622775554}
