772.138671875 277.5562744140625 779.8931274414062 269.29144287109375 758.810546875 268.53814697265625 0.0 0.0 726.736083984375 278.61126708984375 778.4986572265625 328.7196350097656 674.4249267578125 337.9189453125 803.5507202148438 344.4134216308594 598.388427734375 381.5732727050781 813.2522583007812 326.1295166015625 626.7307739257812 351.2897644042969 736.265625 443.3139953613281 667.3790893554688 454.04083251953125 795.9637451171875 505.468994140625 691.4530639648438 536.1494750976562 739.404541015625 568.8482666015625 640.060791015625 612.5758056640625 

Poses:
{'Angle jambe droite : ': 129.7404998050938, 'Angle jambe gauche : ': 94.40958521640727, 'Angle dos : ': 3.799498372451232}
