772.8453369140625 258.6143798828125 778.8306884765625 248.90533447265625 758.7672729492188 249.49432373046875 0.0 0.0 724.8052368164062 259.8206787109375 782.18896484375 311.6717529296875 668.1904296875 317.168212890625 809.992919921875 336.89862060546875 592.845703125 365.2694091796875 814.063720703125 309.0826110839844 626.6077270507812 339.51885986328125 735.7196044921875 431.1035461425781 661.0159301757812 439.44256591796875 791.9252319335938 505.932373046875 688.49560546875 531.645751953125 746.3160400390625 580.6512451171875 644.2965087890625 617.7866821289062 

Poses:
{'Angle jambe droite : ': 136.2417025134842, 'Angle jambe gauche : ': 111.68862355866027, 'Angle dos : ': 3.6090543166643374}
