768.1937866210938 315.0950622558594 776.2471923828125 307.00006103515625 755.35205078125 305.1059875488281 0.0 0.0 724.2418212890625 313.92376708984375 779.6268310546875 364.73443603515625 672.006591796875 371.30450439453125 804.4422607421875 381.9070739746094 600.4994506835938 422.24407958984375 813.2862548828125 351.5345764160156 623.423095703125 392.13494873046875 739.75244140625 473.7672119140625 668.4531860351562 481.986083984375 801.117431640625 515.68359375 692.2318115234375 539.514892578125 741.9176025390625 579.673828125 642.5042724609375 617.23046875 

Poses:
{'Angle jambe droite : ': 124.92922958997998, 'Angle jambe gauche : ': 81.56258089066935, 'Angle dos : ': 3.082134717423575}
