767.5270385742188 308.1058654785156 775.327880859375 299.1893310546875 754.1757202148438 298.7130432128906 0.0 0.0 724.6327514648438 308.4729919433594 777.0977783203125 357.93817138671875 678.0484008789062 363.97332763671875 800.4055786132812 374.86279296875 606.0951538085938 405.6826477050781 811.041259765625 349.3286437988281 625.7635498046875 377.9958801269531 735.3076171875 471.40081787109375 668.0765380859375 479.2856140136719 795.028076171875 511.9027099609375 696.320068359375 536.8994140625 737.8707885742188 578.4659423828125 642.66162109375 617.1854248046875 

Poses:
{'Angle jambe droite : ': 120.12846955737056, 'Angle jambe gauche : ': 83.49236758849958, 'Angle dos : ': 3.2022715264262085}
