753.62939453125 87.50172424316406 762.0203857421875 76.01693725585938 737.8027954101562 78.39703369140625 0.0 0.0 707.07421875 97.4981689453125 768.2021484375 174.720703125 661.5438232421875 177.3818817138672 782.2891845703125 240.42587280273438 598.7976684570312 245.31988525390625 799.6304931640625 188.32293701171875 609.8636474609375 187.97027587890625 729.9158325195312 349.3300476074219 659.0760498046875 355.5686340332031 748.67578125 468.78240966796875 663.7450561523438 491.5987548828125 734.2665405273438 574.7259521484375 638.4335327148438 610.9324951171875 

Poses:
{'Angle jambe droite : ': 166.05883590230127, 'Angle jambe gauche : ': 163.32942452218364, 'Angle dos : ': 3.603572309856666}
