754.2720947265625 299.2655029296875 763.1446533203125 290.88250732421875 740.2149658203125 290.92572021484375 0.0 0.0 711.8833618164062 302.69720458984375 768.585693359375 351.24212646484375 663.2511596679688 361.1542663574219 791.2488403320312 370.1014099121094 590.494384765625 409.8188781738281 805.4824829101562 342.5029296875 615.6989135742188 375.24444580078125 722.542236328125 464.90692138671875 653.1693725585938 475.0467834472656 781.117431640625 517.889404296875 680.468017578125 545.5630493164062 728.7322998046875 586.8472900390625 636.2318115234375 627.646240234375 

Poses:
{'Angle jambe droite : ': 130.51622939788717, 'Angle jambe gauche : ': 94.90720634226963, 'Angle dos : ': 2.939943590035788}
