761.86767578125 225.3301239013672 769.4677124023438 215.1800079345703 746.781005859375 217.40512084960938 0.0 0.0 717.65380859375 233.11813354492188 771.1551513671875 287.19403076171875 668.4730224609375 295.8846435546875 787.580810546875 323.602783203125 593.1249389648438 349.869384765625 811.0589599609375 286.13055419921875 618.4066162109375 298.6556091308594 723.8363647460938 415.4715881347656 654.980224609375 425.6366882324219 777.137939453125 495.156982421875 681.8578491210938 523.9744873046875 738.1006469726562 578.8727416992188 636.3488159179688 620.4708862304688 

Poses:
{'Angle jambe droite : ': 139.46409881543423, 'Angle jambe gauche : ': 121.22143252276805, 'Angle dos : ': 3.5600486115512444}
