765.3351440429688 195.54095458984375 772.739013671875 185.1852569580078 750.790771484375 186.6096649169922 0.0 0.0 720.1829833984375 201.654052734375 775.3389282226562 263.045654296875 668.6884155273438 267.14178466796875 799.04248046875 310.3014831542969 596.16845703125 328.1807861328125 812.285888671875 260.1011657714844 619.66552734375 277.5579528808594 728.2774658203125 401.4227600097656 656.1809692382812 409.4217834472656 779.6737060546875 492.58892822265625 682.0967407226562 520.8167724609375 746.1271362304688 574.7156982421875 638.9130249023438 618.0614624023438 

Poses:
{'Angle jambe droite : ': 142.95854462926243, 'Angle jambe gauche : ': 128.36855381928308, 'Angle dos : ': 4.131527960754212}
