760.6881713867188 67.90963745117188 769.978271484375 58.40423583984375 746.5656127929688 58.8377685546875 0.0 0.0 715.8497924804688 79.11627197265625 773.2352294921875 162.45654296875 670.482666015625 162.9806671142578 786.8255615234375 225.79383850097656 611.8568725585938 231.12881469726562 806.9808349609375 169.20896911621094 619.7728271484375 169.6590118408203 746.4986572265625 341.8486633300781 677.7527465820312 346.6762390136719 745.3590087890625 467.4910583496094 663.3958740234375 487.97320556640625 735.5733032226562 578.8536376953125 648.1967163085938 613.3189697265625 

Poses:
{'right leg angle : ': 178.88797690692863, 'left leg angle : ': 175.49786820851037, 'back angle : ': 3.7246596726156627}
